Content-Type: text/x-zim-wiki
Wiki-Format: zim 0.4
Creation-Date: 2017-06-08T10:39:02+02:00

====== BuiltIns ======
Created Thursday 08 June 2017

===== About =====
	* https://docs.python.org/3/library/functions.html
		# classmethod()
		# filter()
		# map()
	[ ] @CheckMe learn all python built in functions
