Content-Type: text/x-zim-wiki
Wiki-Format: zim 0.4
Creation-Date: 2017-05-02T11:20:40+02:00

====== PySide ======
Created Dienstag 02 Mai 2017

===== About =====
	* https://wiki.python.org/moin/PySide
	* http://wiki.qt.io/PySide			# Qt 4.8, 2017-05-02
	* http://wiki.qt.io/PySide2			# Qt 5.3, 5.4, 5.5

