Content-Type: text/x-zim-wiki
Wiki-Format: zim 0.4
Creation-Date: 2015-10-22T05:41:12+02:00

====== 40.ExportsPdf ======
Created Thursday 22 October 2015

===== About =====
	* Print to Browser (or: html exports)
	* images, portrait, 100%: maximum width = 640 pixels
	* firefox: File / Page Preview
	* firefox: Print / Print to file
