Content-Type: text/x-zim-wiki
Wiki-Format: zim 0.4
Creation-Date: 2017-05-17T06:53:57+02:00

====== 10.Imports ======
Created Mittwoch 17 Mai 2017

===== About =====
	* https://bbs.archlinux.org/viewtopic.php?id=203480
		# problems importing gobject module


