<?xml version="1.0" encoding="UTF-8" standalone="no"?>
<!-- Created with Inkscape (http://www.inkscape.org/) -->
<svg
    xmlns:inkscape="http://www.inkscape.org/namespaces/inkscape"
    xmlns:rdf="http://www.w3.org/1999/02/22-rdf-syntax-ns#"
    xmlns="http://www.w3.org/2000/svg"
    xmlns:sodipodi="http://sodipodi.sourceforge.net/DTD/sodipodi-0.dtd"
    xmlns:cc="http://creativecommons.org/ns#"
    xmlns:xlink="http://www.w3.org/1999/xlink"
    xmlns:dc="http://purl.org/dc/elements/1.1/"
    xmlns:svg="http://www.w3.org/2000/svg"
    xmlns:ns1="http://sozi.baierouge.fr"
    id="svg2"
    sodipodi:docname="DICE_ICON.svg"
    viewBox="0 0 256 256"
    version="1.1"
    inkscape:version="0.48.0 r9654"
  >
  <defs
      id="defs4"
    >
    <linearGradient
        id="linearGradient3982"
        inkscape:collect="always"
      >
      <stop
          id="stop3984"
          style="stop-color:#ffffff"
          offset="0"
      />
      <stop
          id="stop3986"
          style="stop-color:#009100"
          offset="1"
      />
    </linearGradient
    >
    <linearGradient
        id="linearGradient3918"
        inkscape:collect="always"
      >
      <stop
          id="stop3920"
          style="stop-color:#ffffff"
          offset="0"
      />
      <stop
          id="stop3922"
          style="stop-color:#666666"
          offset="1"
      />
    </linearGradient
    >
    <linearGradient
        id="linearGradient3870"
        inkscape:collect="always"
      >
      <stop
          id="stop3872"
          style="stop-color:#cccccc"
          offset="0"
      />
      <stop
          id="stop3874"
          style="stop-color:#ffffff"
          offset="1"
      />
    </linearGradient
    >
    <linearGradient
        id="linearGradient3846"
        inkscape:collect="always"
      >
      <stop
          id="stop3848"
          style="stop-color:#ffffff"
          offset="0"
      />
      <stop
          id="stop3850"
          style="stop-color:#ffffff;stop-opacity:0"
          offset="1"
      />
    </linearGradient
    >
    <linearGradient
        id="linearGradient3042"
        inkscape:collect="always"
      >
      <stop
          id="stop3044"
          style="stop-color:#009100"
          offset="0"
      />
      <stop
          id="stop3046"
          style="stop-color:#9ade00"
          offset="1"
      />
    </linearGradient
    >
    <linearGradient
        id="linearGradient3034"
        inkscape:collect="always"
      >
      <stop
          id="stop3036"
          style="stop-color:#ccff42"
          offset="0"
      />
      <stop
          id="stop3038"
          style="stop-color:#009100"
          offset="1"
      />
    </linearGradient
    >
    <linearGradient
        id="linearGradient3026"
        inkscape:collect="always"
      >
      <stop
          id="stop3028"
          style="stop-color:#9ade00"
          offset="0"
      />
      <stop
          id="stop3030"
          style="stop-color:#009100"
          offset="1"
      />
    </linearGradient
    >
    <filter
        id="filter3854"
        inkscape:collect="always"
        color-interpolation-filters="sRGB"
      >
      <feGaussianBlur
          id="feGaussianBlur3856"
          stdDeviation="0.40788267"
          inkscape:collect="always"
      />
    </filter
    >
    <filter
        id="filter3864"
        inkscape:collect="always"
        color-interpolation-filters="sRGB"
      >
      <feGaussianBlur
          id="feGaussianBlur3866"
          stdDeviation="1.7114598"
          inkscape:collect="always"
      />
    </filter
    >
    <filter
        id="filter3978"
        inkscape:collect="always"
        color-interpolation-filters="sRGB"
      >
      <feGaussianBlur
          id="feGaussianBlur3980"
          stdDeviation="3.8086048"
          inkscape:collect="always"
      />
    </filter
    >
    <filter
        id="filter4462"
        inkscape:collect="always"
        color-interpolation-filters="sRGB"
      >
      <feGaussianBlur
          id="feGaussianBlur4464"
          stdDeviation="2.5910249"
          inkscape:collect="always"
      />
    </filter
    >
    <radialGradient
        id="radialGradient4579"
        xlink:href="#linearGradient3042"
        gradientUnits="userSpaceOnUse"
        cy="389.67"
        cx="-219.55"
        gradientTransform="matrix(2.8576 6.6256 5.4839 5.5376 -1466.1 185.55)"
        r="13.438"
        inkscape:collect="always"
    />
    <linearGradient
        id="linearGradient4581"
        y2="351.65"
        xlink:href="#linearGradient3042"
        gradientUnits="userSpaceOnUse"
        x2="474.29"
        gradientTransform="matrix(.58438 0 0 .58522 -82.267 697.55)"
        y1="290.93"
        x1="533.57"
        inkscape:collect="always"
    />
    <linearGradient
        id="linearGradient4583"
        y2="239.51"
        xlink:href="#linearGradient3026"
        gradientUnits="userSpaceOnUse"
        x2="494.29"
        gradientTransform="matrix(.58438 0 0 .58522 -82.267 697.55)"
        y1="270.93"
        x1="437.14"
        inkscape:collect="always"
    />
    <linearGradient
        id="linearGradient4585"
        y2="332.36"
        xlink:href="#linearGradient3034"
        gradientUnits="userSpaceOnUse"
        x2="412.14"
        gradientTransform="matrix(.58438 0 0 .58522 -82.267 697.55)"
        y1="369.51"
        x1="382.86"
        inkscape:collect="always"
    />
    <linearGradient
        id="linearGradient4587"
        y2="313.08"
        xlink:href="#linearGradient3982"
        gradientUnits="userSpaceOnUse"
        x2="438.39"
        gradientTransform="matrix(.58438 0 0 .58522 -82.267 697.55)"
        y1="331.29"
        x1="449.64"
        inkscape:collect="always"
    />
    <radialGradient
        id="radialGradient4589"
        xlink:href="#linearGradient3026"
        gradientUnits="userSpaceOnUse"
        cy="355.93"
        cx="282.86"
        gradientTransform="matrix(.019041 -1.1144 1.5316 .026245 -467.5 1211.7)"
        r="66.429"
        inkscape:collect="always"
    />
    <linearGradient
        id="linearGradient4591"
        y2="345.93"
        xlink:href="#linearGradient3982"
        gradientUnits="userSpaceOnUse"
        x2="338.57"
        gradientTransform="matrix(.58438 0 0 .58522 -82.267 697.55)"
        y1="344.51"
        x1="353.57"
        inkscape:collect="always"
    />
    <linearGradient
        id="linearGradient4593"
        y2="405.22"
        xlink:href="#linearGradient3846"
        gradientUnits="userSpaceOnUse"
        x2="313.57"
        gradientTransform="translate(-3.5714 1.4286)"
        y1="403.08"
        x1="244.29"
        inkscape:collect="always"
    />
    <linearGradient
        id="linearGradient4595"
        y2="301.94"
        xlink:href="#linearGradient3870"
        gradientUnits="userSpaceOnUse"
        x2="629.63"
        y1="291.49"
        x1="634.76"
        inkscape:collect="always"
    />
    <linearGradient
        id="linearGradient4607"
        y2="306.24"
        xlink:href="#linearGradient3918"
        gradientUnits="userSpaceOnUse"
        x2="610.19"
        y1="300.6"
        x1="640.23"
        inkscape:collect="always"
    />
    <linearGradient
        id="linearGradient4611"
        y2="304.7"
        xlink:href="#linearGradient3918"
        gradientUnits="userSpaceOnUse"
        x2="620.32"
        y1="300.6"
        x1="640.23"
        inkscape:collect="always"
    />
    <radialGradient
        id="radialGradient4625"
        xlink:href="#linearGradient3042"
        gradientUnits="userSpaceOnUse"
        cy="389.67"
        cx="-219.55"
        gradientTransform="matrix(4.89 -11.942 9.3841 -9.981 -2366 1769.7)"
        r="13.438"
        inkscape:collect="always"
    />
    <linearGradient
        id="linearGradient4627"
        y2="351.65"
        xlink:href="#linearGradient3042"
        gradientUnits="userSpaceOnUse"
        x2="474.29"
        gradientTransform="matrix(1 0 0 -1.0548 2.0203 846.87)"
        y1="290.93"
        x1="533.57"
        inkscape:collect="always"
    />
    <linearGradient
        id="linearGradient4629"
        y2="239.51"
        xlink:href="#linearGradient3026"
        gradientUnits="userSpaceOnUse"
        x2="494.29"
        gradientTransform="matrix(1 0 0 -1.0548 2.0203 846.87)"
        y1="270.93"
        x1="437.14"
        inkscape:collect="always"
    />
    <linearGradient
        id="linearGradient4631"
        y2="332.36"
        xlink:href="#linearGradient3034"
        gradientUnits="userSpaceOnUse"
        x2="412.14"
        gradientTransform="matrix(1 0 0 -1.0548 2.0203 846.87)"
        y1="369.51"
        x1="382.86"
        inkscape:collect="always"
    />
    <linearGradient
        id="linearGradient4633"
        y2="313.08"
        xlink:href="#linearGradient3982"
        gradientUnits="userSpaceOnUse"
        x2="438.39"
        gradientTransform="matrix(1 0 0 -1.0548 2.0203 846.87)"
        y1="331.29"
        x1="449.64"
        inkscape:collect="always"
    />
    <radialGradient
        id="radialGradient4635"
        xlink:href="#linearGradient3026"
        gradientUnits="userSpaceOnUse"
        cy="355.93"
        cx="282.86"
        gradientTransform="matrix(.032583 2.0086 2.6208 -.047303 -657.19 -79.87)"
        r="66.429"
        inkscape:collect="always"
    />
    <linearGradient
        id="linearGradient4637"
        y2="345.93"
        xlink:href="#linearGradient3982"
        gradientUnits="userSpaceOnUse"
        x2="338.57"
        gradientTransform="matrix(1 0 0 -1.0548 2.0203 846.87)"
        y1="344.51"
        x1="353.57"
        inkscape:collect="always"
    />
  </defs
  >
  <sodipodi:namedview
      id="base"
      bordercolor="#666666"
      inkscape:pageshadow="2"
      inkscape:window-y="-4"
      pagecolor="#ffffff"
      inkscape:window-height="712"
      inkscape:window-maximized="1"
      inkscape:zoom="0.98994949"
      inkscape:window-x="-4"
      showgrid="false"
      borderopacity="1.0"
      inkscape:current-layer="layer1"
      inkscape:cx="298.31882"
      inkscape:cy="38.323801"
      inkscape:window-width="1280"
      inkscape:pageopacity="0.0"
      inkscape:document-units="px"
  />
  <g
      id="layer1"
      inkscape:label="Layer 1"
      inkscape:groupmode="layer"
      transform="translate(0 -796.36)"
    >
    <path
        id="rect3000"
        sodipodi:nodetypes="sscss"
        style="stroke-width:0;fill:url(#radialGradient4579)"
        inkscape:connector-curvature="0"
        d="m38.784 867.39c0.09211-3.3326 16.393-5.9614 15.027-3.3441-1.6034 3.0722 2.1927 77.963 0.41734 75.661 0 0-13.587-0.5009-14.192-5.0163-1.4997-11.191-1.8404-46.023-1.2522-67.301z"
    />
    <path
        id="path3004"
        d="m179.45 880.54 23.793-36.637c3.476-5.3525 3.9044-15.008 13.775-0.33726l24.21 35.986c2.4782 3.6835 1.575 8.7613 0 11.062l-33.393 48.77c-1.5752 2.3004 0.78901-4.5257-0.83492-6.7792l-29.219-40.548c-1.624-2.2535 0.15298-9.1802 1.6697-11.516z"
        sodipodi:nodetypes="sssssssss"
        style="stroke-width:0;fill:url(#linearGradient4581)"
        inkscape:connector-curvature="0"
    />
    <path
        id="path3006"
        sodipodi:nodetypes="sssssssss"
        style="stroke-width:0;fill:url(#linearGradient4583)"
        inkscape:connector-curvature="0"
        d="m204.49 835.28-38.587-0.45271c-5.8154-0.0682-10.697 0.66604-14.573 6.5115l-29.112 43.906c-1.8685 2.8183 1.7263 5.9305 4.244 5.8981l50.176-0.64654c2.518-0.0327 2.3635-3.0377 3.4935-4.8778l29.692-48.354c1.1299-1.8401-2.7964-1.955-5.3337-1.9849z"
    />
    <path
        id="path3008"
        d="m126.39 884.61 38.587-0.45279c5.8154-0.0682 10.697 0.66605 14.573 6.5116l29.112 43.906c1.8685 2.8183-1.7267 5.959-4.2439 5.898l-43.915-1.0644c-2.5174-0.0612-8.5427-2.6728-9.7547-4.4597l-30.527-45.01c-1.2118-1.7868 3.6314-5.2993 6.1688-5.329z"
        sodipodi:nodetypes="sssssssss"
        style="stroke-width:0;fill:url(#linearGradient4585)"
        inkscape:connector-curvature="0"
    />
    <path
        id="path3050"
        sodipodi:nodetypes="ccccccc"
        style="opacity:.14634;stroke-width:0;fill:url(#linearGradient4587)"
        inkscape:connector-curvature="0"
        d="m164.84 884.11 8.4525 3.0306 7.0961 4.8072-0.20866-4.1802 3.6524-8.3603-6.8874 6.6882z"
    />
    <path
        id="rect2996"
        sodipodi:nodetypes="sssssssss"
        style="stroke-width:0;fill:url(#radialGradient4589)"
        inkscape:connector-curvature="0"
        d="m55.063 862.79 63.447-0.41803c2.7749-0.0188 6.6067 4.7464 6.6787 7.5243l1.6697 64.375c0.0721 2.778-4.3211 5.0162-7.0961 5.0162h-65.117c-2.7751 0-3.7742-1.4013-3.7569-4.1802l0.41744-66.883c0.01808-2.7789 0.98179-5.4159 3.7568-5.4342z"
    />
    <path
        id="path3832"
        sodipodi:nodetypes="csscssc"
        style="opacity:.30244;stroke-width:0;fill:url(#linearGradient4591)"
        inkscape:connector-curvature="0"
        d="m93.895 865.02s27.418-3.6081 27.932 2.3886c1.0444 12.198 1.5616 65.85 2.9326 68.053 1.8616 2.9911-30.409 2.15-30.409 2.15s18.892 1.9138 23.254-4.539c1.3594-2.0107 0.23552-43.919-0.85624-58.706-0.62853-8.5125-22.853-9.3459-22.853-9.3459z"
    />
    <path
        id="path3842"
        style="opacity:.40976;filter:url(#filter3854);stroke-width:0;fill:url(#linearGradient4593)"
        d="m229.35 366.62s-5.8168 44.735 3.8506 44.987c19.664 0.51236 106.16-3.8339 109.71-1.8272 4.8218 2.7249 3.4659-49.436 3.4659-49.436s3.0854 30.399-7.3173 38.084c-3.2415 2.3946-70.804 4.6244-94.642 4.2855-13.723-0.19512-15.067-36.093-15.067-36.093z"
        sodipodi:nodetypes="csscssc"
        inkscape:connector-curvature="0"
        transform="matrix(.58438 0 0 .58523 -82.267 697.55)"
    />
    <path
        id="path3858"
        d="m207.95 841.09s-30.298 45.23-27.247 50.416c6.3088 10.723 27.86 41.399 28.446 43.927 0.79563 3.4333 32.83-45.408 32.83-45.408s-22.311 35.57-29.457 38.652c-5.7202 2.4669-21.368-24.619-30.202-38.774-4.5174-7.2383 25.631-48.813 25.631-48.813z"
        sodipodi:nodetypes="csscssc"
        style="opacity:.30244;stroke-width:0;fill:#ffffff"
        inkscape:connector-curvature="0"
    />
    <path
        id="path3862"
        style="opacity:.078049;filter:url(#filter3864);stroke-width:0;fill:#009100"
        d="m496.07 407.57s-95.526 9.4434-99.027-0.2268c-7.1209-19.67-45.996-75.229-49.237-78.257-4.4-4.1121 98.162-4.484 98.162-4.484s-85.926-13.04-90.279-0.45621c-1.3885 4.0141 32.339 59.933 42.386 78.75 6.8694 12.866 97.995 4.6737 97.995 4.6737z"
        sodipodi:nodetypes="csscssc"
        inkscape:connector-curvature="0"
        transform="matrix(.58705 0 0 -.54394 -82.765 1061.4)"
    />
    <path
        id="path3868"
        sodipodi:rx="15"
        sodipodi:ry="14.285714"
        style="stroke:#2e731a;stroke-linecap:round;stroke-width:.69979;fill:url(#linearGradient4595)"
        sodipodi:type="arc"
        d="m645 299.51a15 14.286 0 1 1 -30 0 15 14.286 0 1 1 30 0z"
        transform="matrix(.57047 0 0 .59986 -291.6 702.99)"
        sodipodi:cy="299.50504"
        sodipodi:cx="630"
    />
    <path
        id="path3878"
        sodipodi:rx="15"
        sodipodi:ry="14.285714"
        style="stroke:#2e731a;stroke-linecap:round;stroke-width:.69979;fill:url(#linearGradient4595)"
        sodipodi:type="arc"
        d="m645 299.51a15 14.286 0 1 1 -30 0 15 14.286 0 1 1 30 0z"
        transform="matrix(.57047 0 0 .59986 -271.15 722.64)"
        sodipodi:cy="299.50504"
        sodipodi:cx="630"
    />
    <path
        id="path3882"
        sodipodi:rx="15"
        sodipodi:ry="14.285714"
        style="stroke:#2e731a;stroke-linecap:round;stroke-width:.69979;fill:url(#linearGradient4595)"
        sodipodi:type="arc"
        d="m645 299.51a15 14.286 0 1 1 -30 0 15 14.286 0 1 1 30 0z"
        transform="matrix(.57047 0 0 .59986 -252.78 743.12)"
        sodipodi:cy="299.50504"
        sodipodi:cx="630"
    />
    <path
        id="path3886"
        sodipodi:rx="15"
        sodipodi:ry="14.285714"
        style="stroke:#2e731a;stroke-linecap:round;stroke-width:.69979;fill:url(#linearGradient4595)"
        sodipodi:type="arc"
        d="m645 299.51a15 14.286 0 1 1 -30 0 15 14.286 0 1 1 30 0z"
        transform="matrix(-.57047 0 0 .59986 466.01 702.99)"
        sodipodi:cy="299.50504"
        sodipodi:cx="630"
    />
    <path
        id="path3888"
        sodipodi:rx="15"
        sodipodi:ry="14.285714"
        style="stroke:#2e731a;stroke-linecap:round;stroke-width:.69979;fill:url(#linearGradient4595)"
        sodipodi:type="arc"
        d="m645 299.51a15 14.286 0 1 1 -30 0 15 14.286 0 1 1 30 0z"
        transform="matrix(-.57047 0 0 .59986 427.19 743.12)"
        sodipodi:cy="299.50504"
        sodipodi:cx="630"
    />
    <path
        id="path3906"
        sodipodi:rx="15"
        sodipodi:ry="14.285714"
        style="stroke:#2e731a;stroke-linecap:round;stroke-width:.69979;fill:url(#linearGradient4595)"
        sodipodi:type="arc"
        d="m645 299.51a15 14.286 0 1 1 -30 0 15 14.286 0 1 1 30 0z"
        transform="matrix(-.57047 0 0 .59986 427.19 743.12)"
        sodipodi:cy="299.50504"
        sodipodi:cx="630"
    />
    <path
        id="path3908"
        sodipodi:rx="15"
        sodipodi:ry="14.285714"
        style="stroke:#2e731a;stroke-linecap:round;stroke-width:.69979;fill:url(#linearGradient4607)"
        sodipodi:type="arc"
        d="m645 299.51a15 14.286 0 1 1 -30 0 15 14.286 0 1 1 30 0z"
        transform="matrix(-.48355 .33395 .20085 .29166 403.93 546.31)"
        sodipodi:cy="299.50504"
        sodipodi:cx="630"
    />
    <path
        id="path3926"
        sodipodi:rx="15"
        sodipodi:ry="14.285714"
        style="stroke:#2e731a;stroke-linecap:round;stroke-width:.69979;fill:url(#linearGradient4607)"
        sodipodi:type="arc"
        d="m645 299.51a15 14.286 0 1 1 -30 0 15 14.286 0 1 1 30 0z"
        transform="matrix(-.48355 .33395 .20085 .29166 410.55 560.87)"
        sodipodi:cy="299.50504"
        sodipodi:cx="630"
    />
    <path
        id="path3930"
        sodipodi:rx="15"
        sodipodi:ry="14.285714"
        style="stroke:#2e731a;stroke-linecap:round;stroke-width:.69979;fill:url(#linearGradient4611)"
        sodipodi:type="arc"
        d="m645 299.51a15 14.286 0 1 1 -30 0 15 14.286 0 1 1 30 0z"
        transform="matrix(-.48355 .33395 .20085 .29166 417.22 576.27)"
        sodipodi:cy="299.50504"
        sodipodi:cx="630"
    />
    <path
        id="path3938"
        sodipodi:rx="15"
        sodipodi:ry="14.285714"
        style="stroke:#2e731a;stroke-linecap:round;stroke-width:.69979;fill:#cccccc"
        sodipodi:type="arc"
        d="m645 299.51a15 14.286 0 1 1 -30 0 15 14.286 0 1 1 30 0z"
        transform="matrix(.46857 .28194 -.16567 .29906 -86.368 661.02)"
        sodipodi:cy="299.50504"
        sodipodi:cx="630"
    />
    <path
        id="path3948"
        sodipodi:rx="15"
        sodipodi:ry="14.285714"
        style="stroke:#2e731a;stroke-linecap:round;stroke-width:.69979;fill:#cccccc"
        sodipodi:type="arc"
        d="m645 299.51a15 14.286 0 1 1 -30 0 15 14.286 0 1 1 30 0z"
        transform="matrix(.52045 .30091 -.18402 .31919 -102.71 612.52)"
        sodipodi:cy="299.50504"
        sodipodi:cx="630"
    />
    <path
        id="path3952"
        sodipodi:rx="15"
        sodipodi:ry="14.285714"
        style="stroke:#3b9e1f;stroke-linecap:round;stroke-width:.67756;fill:url(#linearGradient4595)"
        sodipodi:type="arc"
        d="m645 299.51a15 14.286 0 1 1 -30 0 15 14.286 0 1 1 30 0z"
        transform="matrix(.43884 0 0 .59694 -83.384 707.85)"
        sodipodi:cy="299.50504"
        sodipodi:cx="630"
    />
    <path
        id="path3956"
        sodipodi:rx="15"
        sodipodi:ry="14.285714"
        style="stroke:#3b9e1f;stroke-linecap:round;stroke-width:.67756;fill:url(#linearGradient4595)"
        sodipodi:type="arc"
        d="m645 299.51a15 14.286 0 1 1 -30 0 15 14.286 0 1 1 30 0z"
        transform="matrix(.43884 0 0 .59694 -73.332 721.4)"
        sodipodi:cy="299.50504"
        sodipodi:cx="630"
    />
    <path
        id="path3960"
        sodipodi:rx="15"
        sodipodi:ry="14.285714"
        style="stroke:#3b9e1f;stroke-linecap:round;stroke-width:.67756;fill:url(#linearGradient4595)"
        sodipodi:type="arc"
        d="m645 299.51a15 14.286 0 1 1 -30 0 15 14.286 0 1 1 30 0z"
        transform="matrix(.43884 0 0 .59694 -63.667 736.12)"
        sodipodi:cy="299.50504"
        sodipodi:cx="630"
    />
    <path
        id="path3964"
        sodipodi:rx="15"
        sodipodi:ry="14.285714"
        style="stroke:#3b9e1f;stroke-linecap:round;stroke-width:.72254;fill:url(#linearGradient4595)"
        sodipodi:type="arc"
        d="m645 299.51a15 14.286 0 1 1 -30 0 15 14.286 0 1 1 30 0z"
        transform="matrix(.41152 0 0 .55978 -27.514 718.6)"
        sodipodi:cy="299.50504"
        sodipodi:cx="630"
    />
    <path
        id="path3968"
        sodipodi:rx="15"
        sodipodi:ry="14.285714"
        style="stroke:#3b9e1f;stroke-linecap:round;stroke-width:.72254;fill:url(#linearGradient4595)"
        sodipodi:type="arc"
        d="m645 299.51a15 14.286 0 1 1 -30 0 15 14.286 0 1 1 30 0z"
        transform="matrix(.41152 0 0 .55978 -37.566 704.66)"
        sodipodi:cy="299.50504"
        sodipodi:cx="630"
    />
    <path
        id="path3972"
        sodipodi:rx="15"
        sodipodi:ry="14.285714"
        style="stroke:#3b9e1f;stroke-linecap:round;stroke-width:.72254;fill:url(#linearGradient4595)"
        sodipodi:type="arc"
        d="m645 299.51a15 14.286 0 1 1 -30 0 15 14.286 0 1 1 30 0z"
        transform="matrix(.41152 0 0 .55978 -46.844 690.72)"
        sodipodi:cy="299.50504"
        sodipodi:cx="630"
    />
    <path
        id="path3976"
        style="opacity:.33171;filter:url(#filter3978);stroke-width:0;fill:#009100"
        d="m481.92 410.76s-70.423 9.5722-75.969 0.91153c-8.4734-13.231-22.16-30.692-56.488-85.82-3.1834-5.1122 74.198-1.5359 74.198-1.5359s-57.319-7.8479-64.082 3.6217c-4.9295 8.3598 38.496 66.923 49.826 83.468 8.2411 12.034 72.516-0.64537 72.516-0.64537z"
        sodipodi:nodetypes="csscssc"
        inkscape:connector-curvature="0"
        transform="matrix(.58438 0 0 .58523 -82.267 697.55)"
    />
    <g
        id="g4386"
        style="opacity:.29268;filter:url(#filter4462)"
        transform="matrix(.60160 0 0 .55868 -87.542 712.89)"
      >
      <path
          id="path4284"
          sodipodi:nodetypes="sscss"
          style="opacity:.49756;stroke-width:0;fill:url(#radialGradient4625)"
          inkscape:connector-curvature="0"
          d="m209.16 540.74c0.15764 6.0068 28.051 10.745 25.714 6.0275-2.7435-5.5373 3.7521-140.52 0.71429-136.37 0 0-23.25 0.90286-24.286 9.0412-2.5662 20.171-3.1493 82.952-2.1429 121.3z"
      />
      <path
          id="path4286"
          d="m449.88 517.05 40.714 66.035c5.9481 9.6473 6.6814 27.05 23.571 0.6076l41.429-64.86c4.2406-6.6391 2.6953-15.791 0-19.938l-57.143-87.903c-2.6953-4.1462 1.3502 8.1573-1.4286 12.219l-50 73.083c-2.7788 4.0617 0.26171 16.546 2.8571 20.756z"
          sodipodi:nodetypes="sssssssss"
          style="opacity:.49756;stroke-width:0;fill:url(#linearGradient4627)"
          inkscape:connector-curvature="0"
      />
      <path
          id="path4288"
          sodipodi:nodetypes="sssssssss"
          style="opacity:.49756;stroke-width:0;fill:url(#linearGradient4629)"
          inkscape:connector-curvature="0"
          d="m492.73 598.62-66.03 0.81599c-9.9515 0.12298-18.305-1.2004-24.938-11.736l-49.816-79.137c-3.1976-5.0796 2.9539-10.689 7.262-10.631l85.862 1.1653c4.3086 0.0584 4.0444 5.4751 5.9779 8.7916l50.809 87.153c1.9335 3.3165-4.7851 3.5239-9.1274 3.5776z"
      />
      <path
          id="path4290"
          d="m359.08 509.72 66.03 0.81599c9.9515 0.12298 18.305-1.2004 24.938-11.736l49.816-79.137c3.1976-5.0796-2.9548-10.741-7.262-10.631l-75.148 1.9187c-4.3077 0.10998-14.618 4.8174-16.692 8.0382l-52.237 81.126c-2.0739 3.2208 6.2137 9.5514 10.556 9.6051z"
          sodipodi:nodetypes="sssssssss"
          style="opacity:.49756;stroke-width:0;fill:url(#linearGradient4631)"
          inkscape:connector-curvature="0"
      />
      <path
          id="path4292"
          sodipodi:nodetypes="ccccccc"
          style="opacity:.49756;stroke-width:0;fill:url(#linearGradient4633)"
          inkscape:connector-curvature="0"
          d="m424.88 510.61 14.464-5.4624 12.143-8.6645-0.35713 7.5344 6.25 15.069-11.786-12.055z"
      />
      <path
          id="path4294"
          sodipodi:nodetypes="sssssssss"
          style="opacity:.49756;stroke-width:0;fill:url(#radialGradient4635)"
          inkscape:connector-curvature="0"
          d="m237.02 549.03 108.57 0.75344c4.7485 0.0329 11.305-8.5547 11.429-13.562l2.8572-116.03c0.1233-5.0072-7.3943-9.0412-12.143-9.0412h-111.43c-4.7486 0-6.4582 2.5256-6.4286 7.5344l0.71428 120.55c0.0297 5.0088 1.6801 9.7617 6.4286 9.7947z"
      />
      <path
          id="path4296"
          sodipodi:nodetypes="csscssc"
          style="opacity:.49756;stroke-width:0;fill:url(#linearGradient4637)"
          inkscape:connector-curvature="0"
          d="m303.47 545.03s46.918 6.5033 47.797-4.3051c1.7873-21.985 2.6723-118.69 5.0184-122.66 3.1858-5.3909-52.037-3.8749-52.037-3.8749s32.328-3.4495 39.792 8.1809c2.3259 3.6241 0.40294 79.16-1.4654 105.81-1.0756 15.343-39.106 16.845-39.106 16.845z"
      />
      <path
          id="path4298"
          style="opacity:.49756;filter:url(#filter3854);stroke-width:0;fill:url(#linearGradient4593)"
          d="m229.35 366.62s-5.8168 44.735 3.8506 44.987c19.664 0.51236 106.16-3.8339 109.71-1.8272 4.8218 2.7249 3.4659-49.436 3.4659-49.436s3.0854 30.399-7.3173 38.084c-3.2415 2.3946-70.804 4.6244-94.642 4.2855-13.723-0.19512-15.067-36.093-15.067-36.093z"
          sodipodi:nodetypes="csscssc"
          transform="matrix(1 0 0 -1.0548 2.0203 846.87)"
          inkscape:connector-curvature="0"
      />
      <path
          id="path4300"
          d="m498.64 588.14s-51.846-81.523-46.626-90.869c10.796-19.328 47.675-74.617 48.677-79.174 1.3612-6.1881 56.179 81.843 56.179 81.843s-38.178-64.111-50.407-69.666c-9.7884-4.4462-36.565 44.373-51.682 69.886-7.7301 13.046 43.86 87.98 43.86 87.98z"
          sodipodi:nodetypes="csscssc"
          style="opacity:.49756;stroke-width:0;fill:#ffffff"
          inkscape:connector-curvature="0"
      />
      <path
          id="path4302"
          style="opacity:.49756;filter:url(#filter3864);stroke-width:0;fill:#009100"
          d="m496.07 407.57s-95.526 9.4434-99.027-0.2268c-7.1209-19.67-45.996-75.229-49.237-78.257-4.4-4.1121 98.162-4.484 98.162-4.484s-85.926-13.04-90.279-0.45621c-1.3885 4.0141 32.339 59.933 42.386 78.75 6.8694 12.866 97.995 4.6737 97.995 4.6737z"
          sodipodi:nodetypes="csscssc"
          inkscape:connector-curvature="0"
          transform="matrix(1.0046 0 0 .98039 1.1677 191.05)"
      />
      <path
          id="path4304"
          sodipodi:rx="15"
          sodipodi:ry="14.285714"
          style="opacity:.49756;stroke:#2e731a;stroke-linecap:round;stroke-width:.69979;fill:url(#linearGradient4595)"
          sodipodi:type="arc"
          d="m645 299.51c0 7.8898-6.7157 14.286-15 14.286s-15-6.3959-15-14.286c0-7.8898 6.7157-14.286 15-14.286s15 6.3959 15 14.286z"
          transform="matrix(.97619 0 0 -1.0812 -356.19 837.06)"
          sodipodi:cy="299.50504"
          sodipodi:cx="630"
      />
      <path
          id="path4306"
          sodipodi:rx="15"
          sodipodi:ry="14.285714"
          style="opacity:.49756;stroke:#2e731a;stroke-linecap:round;stroke-width:.69979;fill:url(#linearGradient4595)"
          sodipodi:type="arc"
          d="m645 299.51c0 7.8898-6.7157 14.286-15 14.286s-15-6.3959-15-14.286c0-7.8898 6.7157-14.286 15-14.286s15 6.3959 15 14.286z"
          transform="matrix(.97619 0 0 -1.0812 -321.19 801.65)"
          sodipodi:cy="299.50504"
          sodipodi:cx="630"
      />
      <path
          id="path4308"
          sodipodi:rx="15"
          sodipodi:ry="14.285714"
          style="opacity:.49756;stroke:#2e731a;stroke-linecap:round;stroke-width:.69979;fill:url(#linearGradient4595)"
          sodipodi:type="arc"
          d="m645 299.51c0 7.8898-6.7157 14.286-15 14.286s-15-6.3959-15-14.286c0-7.8898 6.7157-14.286 15-14.286s15 6.3959 15 14.286z"
          transform="matrix(.97619 0 0 -1.0812 -289.77 764.73)"
          sodipodi:cy="299.50504"
          sodipodi:cx="630"
      />
      <path
          id="path4310"
          sodipodi:rx="15"
          sodipodi:ry="14.285714"
          style="opacity:.49756;stroke:#2e731a;stroke-linecap:round;stroke-width:.69979;fill:url(#linearGradient4595)"
          sodipodi:type="arc"
          d="m645 299.51c0 7.8898-6.7157 14.286-15 14.286s-15-6.3959-15-14.286c0-7.8898 6.7157-14.286 15-14.286s15 6.3959 15 14.286z"
          transform="matrix(-.97619 0 0 -1.0812 940.23 837.06)"
          sodipodi:cy="299.50504"
          sodipodi:cx="630"
      />
      <path
          id="path4312"
          sodipodi:rx="15"
          sodipodi:ry="14.285714"
          style="opacity:.49756;stroke:#2e731a;stroke-linecap:round;stroke-width:.69979;fill:url(#linearGradient4595)"
          sodipodi:type="arc"
          d="m645 299.51c0 7.8898-6.7157 14.286-15 14.286s-15-6.3959-15-14.286c0-7.8898 6.7157-14.286 15-14.286s15 6.3959 15 14.286z"
          transform="matrix(-.97619 0 0 -1.0812 873.81 764.73)"
          sodipodi:cy="299.50504"
          sodipodi:cx="630"
      />
      <path
          id="path4314"
          sodipodi:rx="15"
          sodipodi:ry="14.285714"
          style="opacity:.49756;stroke:#2e731a;stroke-linecap:round;stroke-width:.69979;fill:url(#linearGradient4595)"
          sodipodi:type="arc"
          d="m645 299.51c0 7.8898-6.7157 14.286-15 14.286s-15-6.3959-15-14.286c0-7.8898 6.7157-14.286 15-14.286s15 6.3959 15 14.286z"
          transform="matrix(-.97619 0 0 -1.0812 873.81 764.73)"
          sodipodi:cy="299.50504"
          sodipodi:cx="630"
      />
      <path
          id="path4316"
          sodipodi:rx="15"
          sodipodi:ry="14.285714"
          style="opacity:.49756;stroke:#2e731a;stroke-linecap:round;stroke-width:.69979;fill:url(#linearGradient4607)"
          sodipodi:type="arc"
          d="m645 299.51c0 7.8898-6.7157 14.286-15 14.286s-15-6.3959-15-14.286c0-7.8898 6.7157-14.286 15-14.286s15 6.3959 15 14.286z"
          transform="matrix(-.82746 -.60191 .34369 -.52569 834.01 1119.5)"
          sodipodi:cy="299.50504"
          sodipodi:cx="630"
      />
      <path
          id="path4318"
          sodipodi:rx="15"
          sodipodi:ry="14.285714"
          style="opacity:.49756;stroke:#2e731a;stroke-linecap:round;stroke-width:.69979;fill:url(#linearGradient4607)"
          sodipodi:type="arc"
          d="m645 299.51c0 7.8898-6.7157 14.286-15 14.286s-15-6.3959-15-14.286c0-7.8898 6.7157-14.286 15-14.286s15 6.3959 15 14.286z"
          transform="matrix(-.82746 -.60191 .34369 -.52569 845.32 1093.2)"
          sodipodi:cy="299.50504"
          sodipodi:cx="630"
      />
      <path
          id="path4320"
          sodipodi:rx="15"
          sodipodi:ry="14.285714"
          style="opacity:.49756;stroke:#2e731a;stroke-linecap:round;stroke-width:.69979;fill:url(#linearGradient4611)"
          sodipodi:type="arc"
          d="m645 299.51c0 7.8898-6.7157 14.286-15 14.286s-15-6.3959-15-14.286c0-7.8898 6.7157-14.286 15-14.286s15 6.3959 15 14.286z"
          transform="matrix(-.82746 -.60191 .34369 -.52569 856.75 1065.5)"
          sodipodi:cy="299.50504"
          sodipodi:cx="630"
      />
      <path
          id="path4322"
          sodipodi:rx="15"
          sodipodi:ry="14.285714"
          style="opacity:.49756;stroke:#2e731a;stroke-linecap:round;stroke-width:.69979;fill:#cccccc"
          sodipodi:type="arc"
          d="m645 299.51c0 7.8898-6.7157 14.286-15 14.286s-15-6.3959-15-14.286c0-7.8898 6.7157-14.286 15-14.286s15 6.3959 15 14.286z"
          transform="matrix(.80181 -.50817 -.28350 -.53903 -4.9964 912.71)"
          sodipodi:cy="299.50504"
          sodipodi:cx="630"
      />
      <path
          id="path4324"
          sodipodi:rx="15"
          sodipodi:ry="14.285714"
          style="opacity:.49756;stroke:#2e731a;stroke-linecap:round;stroke-width:.69979;fill:#cccccc"
          sodipodi:type="arc"
          d="m645 299.51c0 7.8898-6.7157 14.286-15 14.286s-15-6.3959-15-14.286c0-7.8898 6.7157-14.286 15-14.286s15 6.3959 15 14.286z"
          transform="matrix(.89059 -.54237 -.31489 -.57531 -32.956 1000.1)"
          sodipodi:cy="299.50504"
          sodipodi:cx="630"
      />
      <path
          id="path4326"
          sodipodi:rx="15"
          sodipodi:ry="14.285714"
          style="opacity:.49756;stroke:#3b9e1f;stroke-linecap:round;stroke-width:.67756;fill:url(#linearGradient4595)"
          sodipodi:type="arc"
          d="m645 299.51c0 7.8898-6.7157 14.286-15 14.286s-15-6.3959-15-14.286c0-7.8898 6.7157-14.286 15-14.286s15 6.3959 15 14.286z"
          transform="matrix(.75094 0 0 -1.0759 .10979 828.29)"
          sodipodi:cy="299.50504"
          sodipodi:cx="630"
      />
      <path
          id="path4328"
          sodipodi:rx="15"
          sodipodi:ry="14.285714"
          style="opacity:.49756;stroke:#3b9e1f;stroke-linecap:round;stroke-width:.67756;fill:url(#linearGradient4595)"
          sodipodi:type="arc"
          d="m645 299.51c0 7.8898-6.7157 14.286-15 14.286s-15-6.3959-15-14.286c0-7.8898 6.7157-14.286 15-14.286s15 6.3959 15 14.286z"
          transform="matrix(.75094 0 0 -1.0759 17.31 803.87)"
          sodipodi:cy="299.50504"
          sodipodi:cx="630"
      />
      <path
          id="path4330"
          sodipodi:rx="15"
          sodipodi:ry="14.285714"
          style="opacity:.49756;stroke:#3b9e1f;stroke-linecap:round;stroke-width:.67756;fill:url(#linearGradient4595)"
          sodipodi:type="arc"
          d="m645 299.51c0 7.8898-6.7157 14.286-15 14.286s-15-6.3959-15-14.286c0-7.8898 6.7157-14.286 15-14.286s15 6.3959 15 14.286z"
          transform="matrix(.75094 0 0 -1.0759 33.848 777.35)"
          sodipodi:cy="299.50504"
          sodipodi:cx="630"
      />
      <path
          id="path4332"
          sodipodi:rx="15"
          sodipodi:ry="14.285714"
          style="opacity:.49756;stroke:#3b9e1f;stroke-linecap:round;stroke-width:.72254;fill:url(#linearGradient4595)"
          sodipodi:type="arc"
          d="m645 299.51c0 7.8898-6.7157 14.286-15 14.286s-15-6.3959-15-14.286c0-7.8898 6.7157-14.286 15-14.286s15 6.3959 15 14.286z"
          transform="matrix(.70419 0 0 -1.009 95.713 808.93)"
          sodipodi:cy="299.50504"
          sodipodi:cx="630"
      />
      <path
          id="path4334"
          sodipodi:rx="15"
          sodipodi:ry="14.285714"
          style="opacity:.49756;stroke:#3b9e1f;stroke-linecap:round;stroke-width:.72254;fill:url(#linearGradient4595)"
          sodipodi:type="arc"
          d="m645 299.51c0 7.8898-6.7157 14.286-15 14.286s-15-6.3959-15-14.286c0-7.8898 6.7157-14.286 15-14.286s15 6.3959 15 14.286z"
          transform="matrix(.70419 0 0 -1.009 78.513 834.05)"
          sodipodi:cy="299.50504"
          sodipodi:cx="630"
      />
      <path
          id="path4336"
          sodipodi:rx="15"
          sodipodi:ry="14.285714"
          style="opacity:.49756;stroke:#3b9e1f;stroke-linecap:round;stroke-width:.72254;fill:url(#linearGradient4595)"
          sodipodi:type="arc"
          d="m645 299.51c0 7.8898-6.7157 14.286-15 14.286s-15-6.3959-15-14.286c0-7.8898 6.7157-14.286 15-14.286s15 6.3959 15 14.286z"
          transform="matrix(.70419 0 0 -1.009 62.636 859.17)"
          sodipodi:cy="299.50504"
          sodipodi:cx="630"
      />
      <path
          id="path4338"
          style="opacity:.49756;filter:url(#filter3978);stroke-width:0;fill:#009100"
          d="m481.92 410.76s-70.423 9.5722-75.969 0.91153c-8.4734-13.231-22.16-30.692-56.488-85.82-3.1834-5.1122 74.198-1.5359 74.198-1.5359s-57.319-7.8479-64.082 3.6217c-4.9295 8.3598 38.496 66.923 49.826 83.468 8.2411 12.034 72.516-0.64537 72.516-0.64537z"
          sodipodi:nodetypes="csscssc"
          inkscape:connector-curvature="0"
          transform="matrix(1 0 0 -1.0548 2.0203 846.87)"
      />
    </g
    >
    <rect
        id="rect4577"
        style="opacity:0;stroke-width:0"
        height="256"
        width="256"
        y="796.36"
        x="-.000013884"
    />
  </g
  >
  <metadata
    >
    <rdf:RDF
      >
      <cc:Work
        >
        <dc:format
          >image/svg+xml</dc:format
        >
        <dc:type
            rdf:resource="http://purl.org/dc/dcmitype/StillImage"
        />
        <cc:license
            rdf:resource="http://creativecommons.org/licenses/publicdomain/"
        />
        <dc:publisher
          >
          <cc:Agent
              rdf:about="http://openclipart.org/"
            >
            <dc:title
              >Openclipart</dc:title
            >
          </cc:Agent
          >
        </dc:publisher
        >
        <dc:title
          >Dice Icon by netalloy</dc:title
        >
        <dc:date
          >2010-12-08T05:40:27</dc:date
        >
        <dc:description
        />
        <dc:source
          >https://openclipart.org/detail/99841/dice-icon-by-netalloy-by-netalloy</dc:source
        >
        <dc:creator
          >
          <cc:Agent
            >
            <dc:title
              >netalloy</dc:title
            >
          </cc:Agent
          >
        </dc:creator
        >
        <dc:subject
          >
          <rdf:Bag
            >
            <rdf:li
              >Dice vector image</rdf:li
            >
            <rdf:li
              >board game</rdf:li
            >
            <rdf:li
              >cube</rdf:li
            >
            <rdf:li
              >dice</rdf:li
            >
            <rdf:li
              >gamble</rdf:li
            >
            <rdf:li
              >game</rdf:li
            >
            <rdf:li
              >holidays2010</rdf:li
            >
            <rdf:li
              >icon</rdf:li
            >
            <rdf:li
              >luck</rdf:li
            >
            <rdf:li
              >ludo</rdf:li
            >
            <rdf:li
              >maths</rdf:li
            >
            <rdf:li
              >photo realistic</rdf:li
            >
            <rdf:li
              >play</rdf:li
            >
            <rdf:li
              >random numbers</rdf:li
            >
            <rdf:li
              >snake and ladder</rdf:li
            >
            <rdf:li
              >table top games</rdf:li
            >
            <rdf:li
              >try</rdf:li
            >
          </rdf:Bag
          >
        </dc:subject
        >
      </cc:Work
      >
      <cc:License
          rdf:about="http://creativecommons.org/licenses/publicdomain/"
        >
        <cc:permits
            rdf:resource="http://creativecommons.org/ns#Reproduction"
        />
        <cc:permits
            rdf:resource="http://creativecommons.org/ns#Distribution"
        />
        <cc:permits
            rdf:resource="http://creativecommons.org/ns#DerivativeWorks"
        />
      </cc:License
      >
    </rdf:RDF
    >
  </metadata
  >
</svg
>
