<?xml version="1.0" encoding="UTF-8" standalone="no"?>
<!-- Created with Inkscape (http://www.inkscape.org/) -->

<svg
   xmlns:dc="http://purl.org/dc/elements/1.1/"
   xmlns:cc="http://creativecommons.org/ns#"
   xmlns:rdf="http://www.w3.org/1999/02/22-rdf-syntax-ns#"
   xmlns:svg="http://www.w3.org/2000/svg"
   xmlns="http://www.w3.org/2000/svg"
   xmlns:sodipodi="http://sodipodi.sourceforge.net/DTD/sodipodi-0.dtd"
   xmlns:inkscape="http://www.inkscape.org/namespaces/inkscape"
   width="47.074558"
   height="23.324556"
   id="svg4364"
   version="1.1"
   inkscape:version="0.48.4 r9939"
   sodipodi:docname="New document 8">
  <defs
     id="defs4366" />
  <sodipodi:namedview
     id="base"
     pagecolor="#ffffff"
     bordercolor="#666666"
     borderopacity="1.0"
     inkscape:pageopacity="0.0"
     inkscape:pageshadow="2"
     inkscape:zoom="9.4698114"
     inkscape:cx="28.188048"
     inkscape:cy="15.353111"
     inkscape:current-layer="layer1"
     showgrid="true"
     inkscape:document-units="px"
     inkscape:grid-bbox="true"
     units="mm"
     fit-margin-top="0.5"
     fit-margin-right="0.5"
     fit-margin-left="0.5"
     fit-margin-bottom="0.5"
     inkscape:window-width="792"
     inkscape:window-height="606"
     inkscape:window-x="1713"
     inkscape:window-y="150"
     inkscape:window-maximized="0" />
  <metadata
     id="metadata4369">
    <rdf:RDF>
      <cc:Work
         rdf:about="">
        <dc:format>image/svg+xml</dc:format>
        <dc:type
           rdf:resource="http://purl.org/dc/dcmitype/StillImage" />
        <dc:title></dc:title>
      </cc:Work>
    </rdf:RDF>
  </metadata>
  <g
     id="layer1"
     inkscape:label="Layer 1"
     inkscape:groupmode="layer"
     transform="translate(13.083844,-24.990736)">
    <g
       style="display:inline"
       id="g4346"
       transform="translate(-495.06219,-388.70636)">
      <rect
         style="fill:#aaaaaa;fill-opacity:0.33333333;stroke:#888888;stroke-width:1.77165353;stroke-miterlimit:4;stroke-opacity:1;stroke-dasharray:none;stroke-dashoffset:0;display:inline"
         id="rect3376-7"
         width="41.731422"
         height="17.991272"
         x="484.65076"
         y="416.36066"
         rx="3.5433071"
         ry="3.5433071" />
      <path
         inkscape:connector-curvature="0"
         id="path3390-8"
         style="fill:#00d400;fill-rule:evenodd;display:inline"
         d="m 513.97037,416.72129 c -3.63257,3.09583 -7.37551,6.37136 -9.27929,10.85773 -0.34646,0.75166 -0.63302,1.57963 -0.89492,2.34068 -1.72878,-2.25845 -4.58504,-3.14399 -7.10891,-4.19511 -1.18384,-0.50032 -0.76691,0.77161 -0.13741,1.11337 3.15573,1.56906 6.06953,4.59443 7.9087,7.50587 1.36823,-6.53225 5.82524,-11.93235 10.01096,-16.96484 0.35352,-0.4181 0.17735,-1.25667 -0.49913,-0.6577 z"
         inkscape:export-ydpi="200.03999"
         sodipodi:nodetypes="cccccccc"
         inkscape:export-filename="/home/hsl/Desktop/Checkmark.png"
         inkscape:export-xdpi="200.03999" />
      <g
         transform="translate(490.99701,395.67533)"
         id="g3001">
        <g
           style="font-size:10px;font-style:normal;font-variant:normal;font-weight:normal;font-stretch:normal;text-align:center;line-height:125%;letter-spacing:0px;word-spacing:0px;writing-mode:lr-tb;text-anchor:middle;fill:#000000;fill-opacity:1;stroke:none;display:inline;font-family:DejaVu Sans;-inkscape-font-specification:DejaVu Sans"
           id="text3386-4">
          <path
             inkscape:connector-curvature="0"
             d="m 1.6337147,26.603123 0,5.668945 1.1914062,0 c 1.0058552,1e-6 1.7415316,-0.227864 2.2070313,-0.683594 0.4687441,-0.455727 0.7031189,-1.175127 0.703125,-2.158203 -6.1e-6,-0.976558 -0.2343809,-1.691075 -0.703125,-2.143555 C 4.5666525,26.830994 3.8309761,26.603129 2.8251209,26.603123 l -1.1914062,0 m -0.98632815,-0.810547 2.02636715,0 c 1.412756,7e-6 2.4495389,0.294603 3.1103516,0.883789 0.6608005,0.585943 0.9912038,1.503911 0.9912109,2.753906 -7.1e-6,1.256513 -0.332038,2.179364 -0.9960937,2.768555 -0.664068,0.589193 -1.6992232,0.883789 -3.1054688,0.883789 l -2.02636715,0 0,-7.290039"
             id="path2993" />
          <path
             inkscape:connector-curvature="0"
             d="m 11.301683,26.461521 c -0.716149,7e-6 -1.28581,0.266934 -1.7089839,0.800781 -0.4199237,0.53386 -0.6298845,1.261398 -0.6298829,2.182618 -1.6e-6,0.917971 0.2099592,1.643882 0.6298829,2.177734 0.4231739,0.533855 0.9928349,0.800782 1.7089839,0.800781 0.716142,1e-6 1.282547,-0.266926 1.699219,-0.800781 0.419916,-0.533852 0.629877,-1.259763 0.629883,-2.177734 -6e-6,-0.92122 -0.209967,-1.648758 -0.629883,-2.182618 -0.416672,-0.533847 -0.983077,-0.800774 -1.699219,-0.800781 m 0,-0.800781 c 1.022131,7e-6 1.839187,0.343431 2.451172,1.030273 0.611972,0.6836 0.917962,1.601568 0.917969,2.753907 -7e-6,1.149091 -0.305997,2.067058 -0.917969,2.753906 -0.611985,0.683594 -1.429041,1.02539 -2.451172,1.02539 -1.025393,0 -1.8457048,-0.341796 -2.4609371,-1.02539 -0.61198,-0.683592 -0.9179693,-1.60156 -0.9179687,-2.753906 -6e-7,-1.152339 0.3059887,-2.070307 0.9179687,-2.753907 0.6152323,-0.686842 1.4355441,-1.030266 2.4609371,-1.030273"
             id="path2995" />
          <path
             inkscape:connector-curvature="0"
             d="m 16.213793,25.792576 1.328125,0 3.232422,6.098633 0,-6.098633 0.957031,0 0,7.290039 -1.328125,0 -3.232422,-6.098633 0,6.098633 -0.957031,0 0,-7.290039"
             id="path2997" />
          <path
             inkscape:connector-curvature="0"
             d="m 23.694262,25.792576 4.609375,0 0,0.830078 -3.623047,0 0,2.158203 3.471679,0 0,0.830078 -3.471679,0 0,2.641602 3.710937,0 0,0.830078 -4.697265,0 0,-7.290039"
             id="path2999" />
        </g>
      </g>
    </g>
  </g>
</svg>
