<?xml version="1.0" encoding="UTF-8" standalone="no"?>
<!-- Created with Inkscape (http://www.inkscape.org/) -->

<svg
   xmlns:dc="http://purl.org/dc/elements/1.1/"
   xmlns:cc="http://creativecommons.org/ns#"
   xmlns:rdf="http://www.w3.org/1999/02/22-rdf-syntax-ns#"
   xmlns:svg="http://www.w3.org/2000/svg"
   xmlns="http://www.w3.org/2000/svg"
   xmlns:sodipodi="http://sodipodi.sourceforge.net/DTD/sodipodi-0.dtd"
   xmlns:inkscape="http://www.inkscape.org/namespaces/inkscape"
   id="svg17283"
   sodipodi:docname="hdd.2.svg"
   viewBox="0 0 131.71349 179.18304"
   version="1.1"
   inkscape:version="0.48.4 r9939"
   width="100%"
   height="100%">
  <defs
     id="defs14" />
  <sodipodi:namedview
     id="base"
     bordercolor="#666666"
     inkscape:pageshadow="2"
     inkscape:window-y="87"
     fit-margin-left="0"
     pagecolor="#ffffff"
     fit-margin-top="0"
     inkscape:window-maximized="0"
     inkscape:zoom="1"
     inkscape:window-x="118"
     inkscape:window-height="627"
     showgrid="false"
     borderopacity="1.0"
     inkscape:current-layer="layer1"
     inkscape:cx="157.72483"
     inkscape:cy="158.73075"
     fit-margin-right="0"
     fit-margin-bottom="0"
     inkscape:window-width="1145"
     inkscape:pageopacity="0.0"
     inkscape:document-units="px" />
  <g
     id="layer1"
     inkscape:label="Layer 1"
     inkscape:groupmode="layer"
     transform="translate(-249.99098,-82.902937)">
    <g
       id="g8506"
       transform="matrix(8.7809,0,0,8.7809,-3402.6,-5747)">
      <path
         id="path8508"
         style="fill:#444444"
         transform="translate(0,308.27)"
         inkscape:connector-curvature="0"
         d="m 415.97,355.66 v 20.406 h 15 V 355.66 h -15 z m 6.9688,2.3125 c 0.16809,-0.0171 0.35866,0 0.53125,0 2.7614,0 5,2.2386 5,5 0,2.7614 -2.2386,5 -5,5 -2.7614,0 -5,-2.2386 -5,-5 0,-2.5888 1.9475,-4.744 4.4688,-5 z m 0.22,3.53 c -0.67,0.14 -1.16,0.76 -1.16,1.47 0,0.8088 0.65995,1.4375 1.4688,1.4375 0.8088,0 1.4375,-0.6287 1.4375,-1.4375 0,-0.8088 -0.6287,-1.4688 -1.4375,-1.4688 -0.1011,0 -0.21705,-0.0196 -0.3125,0 z" />
      <path
         id="path8510"
         d="m 420.57,677.21 4.84,-4.0968 c 0.43012,-0.36408 0.83734,-0.58873 0.99175,-0.43432 0.15441,0.15441 -0.0701,0.5617 -0.43433,0.99177 l -4.0968,4.84 c -0.36141,0.42703 -1.0031,0.42299 -1.3634,0.0627 -0.3603,-0.3603 -0.36434,-1.002 0.0627,-1.3634 z"
         sodipodi:nodetypes="sssssss"
         style="fill:#b3b3b3"
         inkscape:connector-curvature="0" />
    </g>
  </g>
  <metadata
     id="metadata12">
    <rdf:RDF>
      <cc:Work>
        <dc:format>image/svg+xml</dc:format>
        <dc:type
           rdf:resource="http://purl.org/dc/dcmitype/StillImage" />
        <cc:license
           rdf:resource="http://creativecommons.org/licenses/publicdomain/" />
        <dc:publisher>
          <cc:Agent
             rdf:about="http://openclipart.org/">
            <dc:title>Openclipart</dc:title>
          </cc:Agent>
        </dc:publisher>
      </cc:Work>
      <cc:License
         rdf:about="http://creativecommons.org/licenses/publicdomain/">
        <cc:permits
           rdf:resource="http://creativecommons.org/ns#Reproduction" />
        <cc:permits
           rdf:resource="http://creativecommons.org/ns#Distribution" />
        <cc:permits
           rdf:resource="http://creativecommons.org/ns#DerivativeWorks" />
      </cc:License>
    </rdf:RDF>
  </metadata>
</svg>
