<?xml version="1.0" encoding="UTF-8" standalone="no"?>
<!-- Created with Inkscape (http://www.inkscape.org/) -->
<svg
    xmlns:dc="http://purl.org/dc/elements/1.1/"
    xmlns:inkscape="http://www.inkscape.org/namespaces/inkscape"
    xmlns:xlink="http://www.w3.org/1999/xlink"
    xmlns:sodipodi="http://sodipodi.sourceforge.net/DTD/sodipodi-0.dtd"
    xmlns:cc="http://creativecommons.org/ns#"
    xmlns:rdf="http://www.w3.org/1999/02/22-rdf-syntax-ns#"
    xmlns="http://www.w3.org/2000/svg"
    xmlns:svg="http://www.w3.org/2000/svg"
    xmlns:ns1="http://sozi.baierouge.fr"
    id="svg2"
    sodipodi:modified="TRUE"
    viewBox="0 0 30 30"
    sodipodi:docbase="D:\gfx"
    inkscape:export-ydpi="48"
    inkscape:export-xdpi="48"
    version="1.0"
    inkscape:output_extension="org.inkscape.output.svg.inkscape"
    sodipodi:docname="icon_arrow_right_blue.svg"
    inkscape:export-filename="D:\proj\icons\released\icon_arrow_right_blue.png"
    inkscape:version="0.46"
    sodipodi:version="0.32"
  >
  <defs
      id="defs4"
    >
    <linearGradient
        id="linearGradient2394"
        y2="21"
        gradientUnits="userSpaceOnUse"
        x2="23"
        y1="11"
        x1="13"
        inkscape:collect="always"
      >
      <stop
          id="stop2390"
          style="stop-color:#82aad5"
          offset="0"
      />
      <stop
          id="stop2392"
          style="stop-color:#366aa2"
          offset="1"
      />
    </linearGradient
    >
  </defs
  >
  <sodipodi:namedview
      id="base"
      inkscape:zoom="26.9"
      height="30px"
      borderopacity="1.0"
      inkscape:current-layer="layer1"
      inkscape:cx="9.3680295"
      inkscape:cy="15"
      inkscape:grid-points="true"
      showgrid="false"
      width="30px"
      inkscape:snap-global="true"
      showguides="true"
      bordercolor="#666666"
      inkscape:window-x="0"
      inkscape:window-y="20"
      inkscape:window-width="1680"
      inkscape:pageopacity="0.0"
      inkscape:pageshadow="2"
      pagecolor="#ffffff"
      gridtolerance="10000"
      inkscape:document-units="px"
      inkscape:window-height="1003"
    >
    <inkscape:grid
        id="grid2395"
        type="xygrid"
    />
  </sodipodi:namedview
  >
  <g
      id="layer1"
      inkscape:label="Calque 1"
      inkscape:groupmode="layer"
    >
    <rect
        id="rect3465"
        style="fill:#427bc3"
        ry="0"
        height="0"
        width="6"
        y="12.5"
        x="16"
    />
    <path
        id="path3354"
        style="fill:#204a87"
        d="m12.5 2.5625c-1.031 0.0971-1.817 0.9647-1.812 2v2.625h-7.313c-1.1045 0.0001-1.9999 0.8955-2 2v11.624c0.0001 1.105 0.8955 2 2 2h7.313v2.626c0 1.104 0.895 1.999 2 2h2.312c0.454 0 0.895-0.154 1.25-0.438l11.625-9.281c0.474-0.38 0.75-0.955 0.75-1.563v-2.312c0-0.608-0.276-1.183-0.75-1.563l-11.625-9.281c-0.355-0.2835-0.796-0.4378-1.25-0.4375h-2.312c-0.063-0.0029-0.126-0.0029-0.188 0z"
    />
    <path
        id="path3358"
        style="fill:url(#linearGradient2394)"
        d="m13.312 5.1875v4c0 0.3452-0.279 0.625-0.624 0.625h-8.688v10.376h8.688c0.345 0 0.624 0.279 0.624 0.624v4h1.469l11.219-8.968v-1.688l-11.219-8.9685h-1.469z"
    />
  </g
  >
  <metadata
    >
    <rdf:RDF
      >
      <cc:Work
        >
        <dc:format
          >image/svg+xml</dc:format
        >
        <dc:type
            rdf:resource="http://purl.org/dc/dcmitype/StillImage"
        />
        <cc:license
            rdf:resource="http://creativecommons.org/licenses/publicdomain/"
        />
        <dc:publisher
          >
          <cc:Agent
              rdf:about="http://openclipart.org/"
            >
            <dc:title
              >Openclipart</dc:title
            >
          </cc:Agent
          >
        </dc:publisher
        >
        <dc:title
          >icon_arrow_right_blue</dc:title
        >
        <dc:date
          >2008-05-26T11:57:46</dc:date
        >
        <dc:description
        />
        <dc:source
          >https://openclipart.org/detail/17019/icon_arrow_right_blue-by-jean_victor_balin</dc:source
        >
        <dc:creator
          >
          <cc:Agent
            >
            <dc:title
              >jean_victor_balin</dc:title
            >
          </cc:Agent
          >
        </dc:creator
        >
        <dc:subject
          >
          <rdf:Bag
            >
            <rdf:li
              >arrow</rdf:li
            >
            <rdf:li
              >icon</rdf:li
            >
          </rdf:Bag
          >
        </dc:subject
        >
      </cc:Work
      >
      <cc:License
          rdf:about="http://creativecommons.org/licenses/publicdomain/"
        >
        <cc:permits
            rdf:resource="http://creativecommons.org/ns#Reproduction"
        />
        <cc:permits
            rdf:resource="http://creativecommons.org/ns#Distribution"
        />
        <cc:permits
            rdf:resource="http://creativecommons.org/ns#DerivativeWorks"
        />
      </cc:License
      >
    </rdf:RDF
    >
  </metadata
  >
</svg
>
