<?xml version="1.0" encoding="UTF-8" standalone="no"?>
<!-- Created with Inkscape (http://www.inkscape.org/) -->

<svg
   xmlns:dc="http://purl.org/dc/elements/1.1/"
   xmlns:cc="http://creativecommons.org/ns#"
   xmlns:rdf="http://www.w3.org/1999/02/22-rdf-syntax-ns#"
   xmlns:svg="http://www.w3.org/2000/svg"
   xmlns="http://www.w3.org/2000/svg"
   xmlns:xlink="http://www.w3.org/1999/xlink"
   xmlns:sodipodi="http://sodipodi.sourceforge.net/DTD/sodipodi-0.dtd"
   xmlns:inkscape="http://www.inkscape.org/namespaces/inkscape"
   id="svg9493"
   sodipodi:docname="led-circle-grey.svg"
   inkscape:export-ydpi="90.000000"
   inkscape:export-filename="/datas/Projs/Cliparts Stocker/led/led_circle_red.png"
   viewBox="0 0 50 50"
   sodipodi:version="0.32"
   inkscape:export-xdpi="90.000000"
   inkscape:version="0.91 r13725"
   version="1.1">
  <defs
     id="defs9495">
    <linearGradient
       gradientTransform="matrix(35.234899,0,0,35.234899,-796.32362,-1500.5478)"
       inkscape:collect="always"
       x1="22.978395"
       x2="23.18746"
       y1="43.288498"
       gradientUnits="userSpaceOnUse"
       y2="43.874046"
       id="linearGradient3357">
      <stop
         offset="0"
         style="stop-color:#ffffff;stop-opacity:1"
         id="stop3359" />
      <stop
         offset="1"
         style="stop-color:#4d4d4d;stop-opacity:1"
         id="stop3361" />
    </linearGradient>
    <linearGradient
       id="linearGradient6646"
       y2="43.711"
       gradientUnits="userSpaceOnUse"
       y1="42.768"
       x2="23.441"
       x1="23.35"
       inkscape:collect="always"
       gradientTransform="matrix(38.590604,0,0,38.590604,-874.5451,-1645.8381)">
      <stop
         id="stop5758"
         style="stop-color:#828282"
         offset="0" />
      <stop
         id="stop5760"
         style="stop-color:#929292;stop-opacity:.35294"
         offset="1" />
    </linearGradient>
    <linearGradient
       id="linearGradient6644"
       y2="44"
       gradientUnits="userSpaceOnUse"
       y1="42.429"
       x2="23.2"
       x1="23.193"
       inkscape:collect="always"
       gradientTransform="matrix(31.25,0,0,31.25,-699.99812,-1325)">
      <stop
         id="stop5744"
         style="stop-color:#adadad"
         offset="0" />
      <stop
         id="stop5746"
         style="stop-color:#f0f0f0"
         offset="1" />
    </linearGradient>
    <radialGradient
       inkscape:collect="always"
       xlink:href="#linearGradient3357"
       id="radialGradient3355"
       cx="65.988205"
       cy="30.13933"
       fx="65.988205"
       fy="30.13933"
       r="7.5"
       gradientUnits="userSpaceOnUse"
       gradientTransform="matrix(0.01910055,0.96233837,-0.96731426,0.01919925,54.047778,-45.528419)" />
  </defs>
  <sodipodi:namedview
     id="base"
     bordercolor="#666666"
     inkscape:pageshadow="2"
     inkscape:window-width="1564"
     pagecolor="#ffffff"
     inkscape:zoom="7.4104791"
     inkscape:window-x="28"
     borderopacity="1.0"
     inkscape:current-layer="layer1"
     inkscape:cx="28.58806"
     inkscape:cy="39.08121"
     inkscape:window-y="75"
     inkscape:window-height="779"
     inkscape:pageopacity="0.0"
     inkscape:document-units="px"
     showgrid="false"
     inkscape:window-maximized="0" />
  <g
     id="layer1"
     inkscape:label="Calque 1"
     inkscape:groupmode="layer">
    <path
       inkscape:connector-curvature="0"
       d="m 50.00188,25 c 0,13.8125 -11.1875,25 -25,25 -13.8125,0 -25,-11.1875 -25,-25 0,-13.8125 11.1875,-25 25,-25 13.8125,0 25,11.1875 25,25 z"
       style="fill:url(#linearGradient6644)"
       id="path6596" />
    <path
       inkscape:connector-curvature="0"
       d="m 48.00188,24.980705 c 0,12.696308 -10.303691,23.038591 -22.999999,23.038591 -12.696309,0 -23.0000009,-10.342283 -23.0000009,-23.038591 0,-12.696309 10.3036919,-23.0000008 23.0000009,-23.0000008 12.696308,0 22.999999,10.3036918 22.999999,23.0000008 z"
       style="fill:url(#linearGradient6646)"
       id="path6598" />
    <path
       inkscape:connector-curvature="0"
       d="m 46.00188,24.982382 c 0,11.592282 -9.407718,21.035235 -21.000001,21.035235 -11.592281,0 -20.999999,-9.442953 -20.999999,-21.035235 0,-11.592281 9.407718,-20.9999993 20.999999,-20.9999993 11.592283,0 21.000001,9.4077183 21.000001,20.9999993 z"
       style="fill:#4d4d4d"
       id="path6600" />
    <path
       inkscape:connector-curvature="0"
       d="m 33.684606,18.500424 c 0,4.13663 -3.3599,7.506286 -7.500001,7.506286 -4.1401,0 -7.499999,-3.369656 -7.499999,-7.506286 0,-4.136631 3.359899,-7.493714 7.499999,-7.493714 4.140101,0 7.500001,3.357083 7.500001,7.493714 z"
       style="fill:url(#radialGradient3355);fill-opacity:1;stroke:none"
       id="path6602" />
  </g>
  <metadata
     id="metadata23">
    <rdf:RDF>
      <cc:Work>
        <dc:format>image/svg+xml</dc:format>
        <dc:type
           rdf:resource="http://purl.org/dc/dcmitype/StillImage" />
        <cc:license
           rdf:resource="http://creativecommons.org/licenses/publicdomain/" />
        <dc:publisher>
          <cc:Agent
             rdf:about="http://openclipart.org/">
            <dc:title>Openclipart</dc:title>
          </cc:Agent>
        </dc:publisher>
        <dc:title>led circle red</dc:title>
        <dc:date>2009-06-30T13:06:15</dc:date>
        <dc:description>Red glossy circle by Jean-Victor Balin. From OCAL 0.18 release.</dc:description>
        <dc:source>https://openclipart.org/detail/26906/led-circle-red-by-anonymous</dc:source>
        <dc:creator>
          <cc:Agent>
            <dc:title>Anonymous</dc:title>
          </cc:Agent>
        </dc:creator>
        <dc:subject>
          <rdf:Bag>
            <rdf:li>button</rdf:li>
            <rdf:li>glossy</rdf:li>
            <rdf:li>red</rdf:li>
            <rdf:li>round</rdf:li>
          </rdf:Bag>
        </dc:subject>
      </cc:Work>
      <cc:License
         rdf:about="http://creativecommons.org/licenses/publicdomain/">
        <cc:permits
           rdf:resource="http://creativecommons.org/ns#Reproduction" />
        <cc:permits
           rdf:resource="http://creativecommons.org/ns#Distribution" />
        <cc:permits
           rdf:resource="http://creativecommons.org/ns#DerivativeWorks" />
      </cc:License>
    </rdf:RDF>
  </metadata>
</svg>
