<?xml version="1.0" encoding="UTF-8" standalone="no"?>
<!-- Created with Inkscape (http://www.inkscape.org/) -->

<svg
   xmlns:dc="http://purl.org/dc/elements/1.1/"
   xmlns:cc="http://creativecommons.org/ns#"
   xmlns:rdf="http://www.w3.org/1999/02/22-rdf-syntax-ns#"
   xmlns:svg="http://www.w3.org/2000/svg"
   xmlns="http://www.w3.org/2000/svg"
   xmlns:sodipodi="http://sodipodi.sourceforge.net/DTD/sodipodi-0.dtd"
   xmlns:inkscape="http://www.inkscape.org/namespaces/inkscape"
   width="57.003151mm"
   height="55.527931mm"
   viewBox="0 0 201.97968 196.75251"
   id="svg2"
   version="1.1"
   inkscape:version="0.91 r13725"
   sodipodi:docname="Paper.01.svg">
  <defs
     id="defs4" />
  <sodipodi:namedview
     id="base"
     pagecolor="#ffffff"
     bordercolor="#666666"
     borderopacity="1.0"
     inkscape:pageopacity="0.0"
     inkscape:pageshadow="2"
     inkscape:zoom="1.979899"
     inkscape:cx="111.53239"
     inkscape:cy="139.86402"
     inkscape:document-units="px"
     inkscape:current-layer="layer1"
     showgrid="true"
     inkscape:window-width="970"
     inkscape:window-height="904"
     inkscape:window-x="1666"
     inkscape:window-y="93"
     inkscape:window-maximized="0"
     fit-margin-top="0.5"
     fit-margin-left="0.5"
     fit-margin-right="0.5"
     fit-margin-bottom="0.5">
    <inkscape:grid
       type="xygrid"
       id="grid3334"
       originx="-246.25985"
       originy="-372.94826" />
  </sodipodi:namedview>
  <metadata
     id="metadata7">
    <rdf:RDF>
      <cc:Work
         rdf:about="">
        <dc:format>image/svg+xml</dc:format>
        <dc:type
           rdf:resource="http://purl.org/dc/dcmitype/StillImage" />
        <dc:title></dc:title>
      </cc:Work>
    </rdf:RDF>
  </metadata>
  <g
     inkscape:label="Layer 1"
     inkscape:groupmode="layer"
     id="layer1"
     transform="translate(-246.25984,-482.66144)">
    <g
       id="g9493"
       style="fill:#eeeeee;fill-opacity:1;stroke:#888888;stroke-opacity:1"
       transform="matrix(1,0,0,-1,85.539363,943.01969)">
      <path
         inkscape:connector-curvature="0"
         id="path9487"
         d="m 219.68504,428.74016 21.25984,0 7.08662,7.08661 0,21.25984 -28.34646,0 z"
         style="fill:#eeeeee;fill-opacity:1;fill-rule:evenodd;stroke:#888888;stroke-width:1px;stroke-linecap:butt;stroke-linejoin:miter;stroke-opacity:1" />
      <path
         inkscape:connector-curvature="0"
         id="path9491"
         d="m 240.94488,428.74016 0,7.08661 7.08662,0"
         style="fill:#eeeeee;fill-opacity:1;fill-rule:evenodd;stroke:#888888;stroke-width:1px;stroke-linecap:butt;stroke-linejoin:miter;stroke-opacity:1" />
    </g>
    <g
       id="g10333"
       transform="translate(127.42048,35.154322)">
      <path
         d="m 317.82692,463.57811 c 0,-3.6457 0.35731,-7.30016 0.78798,-10.9292 0.28421,-2.38621 -2.51567,-2.37142 -4.65529,-2.37142 l -18.58448,0 c -2.71912,0 -4.63708,0.77512 -4.34574,3.08276 0.55707,4.42021 0.71198,8.87917 0.47764,13.31688 -0.10899,2.07921 -0.28738,4.15509 -0.51802,6.2268 -0.13405,1.20217 -0.54203,2.44374 0.53412,3.47522 1.47541,1.41455 5.51135,1.09588 7.58236,1.21468 2.80726,0.16111 5.61506,0.3218 8.42285,0.48249 2.08183,0.11922 3.18252,-0.38787 4.90809,-1.41997 1.88365,-1.12652 5.66098,-3.13758 6.18612,-5.11696 0.15332,-0.57712 -0.26838,-1.44394 -0.35915,-2.01814 -0.31139,-1.96958 -0.43806,-3.95834 -0.43806,-5.94251"
         style="fill:#ffffff"
         id="path9513"
         inkscape:connector-curvature="0" />
      <path
         d="m 294.39696,477.52475 c -4.7788,9.8e-4 -3.09306,-5.08646 -2.90228,-7.29515 0.41762,-4.84426 0.4425,-9.69056 -0.0272,-14.53297 -0.2333,-2.40995 -0.86477,-5.13049 3.53037,-5.13049 l 6.93762,0 10.30727,0 c 1.73757,0 4.99058,-0.41848 6.15061,0.8685 0.76808,0.85211 0.45753,1.93004 0.35384,2.89004 -0.21386,1.98041 -0.39324,3.96329 -0.51326,5.94861 -0.2219,3.66293 -0.24757,7.41083 0.62369,11.0279 0.37742,1.56602 -3.26571,3.65105 -4.52579,4.49354 -1.48769,0.994 -3.57989,2.66587 -5.6866,2.54548 -4.74977,-0.27189 -9.49927,-0.54398 -14.24981,-0.81628 m -2.73533,-24.63178 c 0.86581,3.28232 0.69887,6.98129 0.69887,10.30784 0,3.83532 -0.30122,7.68947 -0.81734,11.50288 -0.35591,2.62861 3.79816,2.4597 5.9606,2.58357 3.31859,0.18999 6.63691,0.38019 9.95524,0.57018 2.54688,0.14578 3.84533,-0.58963 5.8748,-1.91141 1.56183,-1.01815 5.34157,-3.0389 4.93485,-4.88888 -0.85908,-3.90309 -0.7725,-7.90855 -0.49149,-11.8491 0.12416,-1.74169 0.28722,-3.48215 0.47904,-5.22036 0.11691,-1.06319 0.37562,-2.4036 -1.23546,-2.862 -1.20461,-0.34314 -2.87868,-0.14352 -4.12322,-0.14352 l -8.39886,0 -7.80445,0 c -1.82339,0 -5.03051,-0.13922 -5.03051,1.91018"
         style="fill:#737373;stroke:#737373;stroke-width:0.30000001;stroke-miterlimit:4;stroke-dasharray:none;stroke-opacity:1"
         id="path9515"
         inkscape:connector-curvature="0" />
      <path
         d="m 315.94169,463.43514 c 0,-3.2816 0.9215,-6.69721 0.69218,-9.95317 0,-2.45749 -3.75911,-1.92519 -5.85519,-1.92519 l -10.50574,0 c -1.89262,0 -5.83699,-0.51063 -6.93952,1.08651 -0.55602,0.80554 -0.10107,2.06045 -0.0169,2.91018 0.24066,2.42832 0.361,4.86477 0.361,7.30038 0,2.37955 -0.12825,4.7593 -0.31482,7.13405 -0.0942,1.19718 -0.5481,2.643 -0.25941,3.84017 0.58003,2.40935 5.16407,2.00001 7.48077,2.1432 1.70367,0.10587 3.40735,0.21113 5.11102,0.31659 0.50192,0.0315 2.33965,0.39454 2.78273,0.17278 0.47764,0 0.76765,-3.66238 0.93945,-4.08339 0.7183,-1.75762 2.66318,-1.43332 4.63549,-1.50876 1.17484,-0.045 2.69274,0.16027 2.46236,-0.96833 -0.43462,-2.13111 -0.57343,-4.30682 -0.57343,-6.46377"
         style="fill:#f4f2f2;stroke-width:1;stroke-miterlimit:4;stroke-dasharray:none"
         id="path9517"
         inkscape:connector-curvature="0" />
      <path
         d="m 308.56754,477.29912 c -0.21692,-1.18738 -0.39214,-2.38038 -0.51643,-3.5761 -0.10028,-0.96749 -0.71277,-3.42019 0.29344,-4.21511 2.12168,-1.67571 7.64833,0.7597 9.73069,1.62152 -2.29347,-0.28095 -5.40421,-0.77679 -7.61798,-0.0563 -1.79894,0.58566 -1.6831,4.87164 -1.88946,6.22596"
         style="fill:#adadad"
         id="path9519"
         inkscape:connector-curvature="0" />
    </g>
    <g
       transform="translate(28.846453,56.192922)"
       style="fill:#eeeeee;fill-opacity:1;stroke:#888888;stroke-opacity:1"
       id="g10359">
      <path
         style="fill:#eeeeee;fill-opacity:1;fill-rule:evenodd;stroke:#888888;stroke-width:1px;stroke-linecap:butt;stroke-linejoin:miter;stroke-opacity:1"
         d="m 219.68504,428.74016 21.25984,0 7.08662,7.08661 0,21.25984 -28.34646,0 z"
         id="path10361"
         inkscape:connector-curvature="0" />
      <path
         style="fill:#eeeeee;fill-opacity:1;fill-rule:evenodd;stroke:#888888;stroke-width:1px;stroke-linecap:butt;stroke-linejoin:miter;stroke-opacity:1"
         d="m 240.94488,428.74016 0,7.08661 7.08662,0"
         id="path10363"
         inkscape:connector-curvature="0" />
    </g>
    <g
       transform="matrix(1,0,0,-1,63.529723,963.92959)"
       id="g10365">
      <path
         inkscape:connector-curvature="0"
         id="path10367"
         style="fill:#ffffff"
         d="m 317.82692,463.57811 c 0,-3.6457 0.35731,-7.30016 0.78798,-10.9292 0.28421,-2.38621 -2.51567,-2.37142 -4.65529,-2.37142 l -18.58448,0 c -2.71912,0 -4.63708,0.77512 -4.34574,3.08276 0.55707,4.42021 0.71198,8.87917 0.47764,13.31688 -0.10899,2.07921 -0.28738,4.15509 -0.51802,6.2268 -0.13405,1.20217 -0.54203,2.44374 0.53412,3.47522 1.47541,1.41455 5.51135,1.09588 7.58236,1.21468 2.80726,0.16111 5.61506,0.3218 8.42285,0.48249 2.08183,0.11922 3.18252,-0.38787 4.90809,-1.41997 1.88365,-1.12652 5.66098,-3.13758 6.18612,-5.11696 0.15332,-0.57712 -0.26838,-1.44394 -0.35915,-2.01814 -0.31139,-1.96958 -0.43806,-3.95834 -0.43806,-5.94251" />
      <path
         inkscape:connector-curvature="0"
         id="path10369"
         style="fill:#737373;stroke:#737373;stroke-width:0.30000001;stroke-miterlimit:4;stroke-dasharray:none;stroke-opacity:1"
         d="m 294.39696,477.52475 c -4.7788,9.8e-4 -3.09306,-5.08646 -2.90228,-7.29515 0.41762,-4.84426 0.4425,-9.69056 -0.0272,-14.53297 -0.2333,-2.40995 -0.86477,-5.13049 3.53037,-5.13049 l 6.93762,0 10.30727,0 c 1.73757,0 4.99058,-0.41848 6.15061,0.8685 0.76808,0.85211 0.45753,1.93004 0.35384,2.89004 -0.21386,1.98041 -0.39324,3.96329 -0.51326,5.94861 -0.2219,3.66293 -0.24757,7.41083 0.62369,11.0279 0.37742,1.56602 -3.26571,3.65105 -4.52579,4.49354 -1.48769,0.994 -3.57989,2.66587 -5.6866,2.54548 -4.74977,-0.27189 -9.49927,-0.54398 -14.24981,-0.81628 m -2.73533,-24.63178 c 0.86581,3.28232 0.69887,6.98129 0.69887,10.30784 0,3.83532 -0.30122,7.68947 -0.81734,11.50288 -0.35591,2.62861 3.79816,2.4597 5.9606,2.58357 3.31859,0.18999 6.63691,0.38019 9.95524,0.57018 2.54688,0.14578 3.84533,-0.58963 5.8748,-1.91141 1.56183,-1.01815 5.34157,-3.0389 4.93485,-4.88888 -0.85908,-3.90309 -0.7725,-7.90855 -0.49149,-11.8491 0.12416,-1.74169 0.28722,-3.48215 0.47904,-5.22036 0.11691,-1.06319 0.37562,-2.4036 -1.23546,-2.862 -1.20461,-0.34314 -2.87868,-0.14352 -4.12322,-0.14352 l -8.39886,0 -7.80445,0 c -1.82339,0 -5.03051,-0.13922 -5.03051,1.91018" />
      <path
         inkscape:connector-curvature="0"
         id="path10371"
         style="fill:#f4f2f2;stroke-width:1;stroke-miterlimit:4;stroke-dasharray:none"
         d="m 315.94169,463.43514 c 0,-3.2816 0.9215,-6.69721 0.69218,-9.95317 0,-2.45749 -3.75911,-1.92519 -5.85519,-1.92519 l -10.50574,0 c -1.89262,0 -5.83699,-0.51063 -6.93952,1.08651 -0.55602,0.80554 -0.10107,2.06045 -0.0169,2.91018 0.24066,2.42832 0.361,4.86477 0.361,7.30038 0,2.37955 -0.12825,4.7593 -0.31482,7.13405 -0.0942,1.19718 -0.5481,2.643 -0.25941,3.84017 0.58003,2.40935 5.16407,2.00001 7.48077,2.1432 1.70367,0.10587 3.40735,0.21113 5.11102,0.31659 0.50192,0.0315 2.33965,0.39454 2.78273,0.17278 0.47764,0 0.76765,-3.66238 0.93945,-4.08339 0.7183,-1.75762 2.66318,-1.43332 4.63549,-1.50876 1.17484,-0.045 2.69274,0.16027 2.46236,-0.96833 -0.43462,-2.13111 -0.57343,-4.30682 -0.57343,-6.46377" />
      <path
         inkscape:connector-curvature="0"
         id="path10373"
         style="fill:#adadad"
         d="m 308.56754,477.29912 c -0.21692,-1.18738 -0.39214,-2.38038 -0.51643,-3.5761 -0.10028,-0.96749 -0.71277,-3.42019 0.29344,-4.21511 2.12168,-1.67571 7.64833,0.7597 9.73069,1.62152 -2.29347,-0.28095 -5.40421,-0.77679 -7.61798,-0.0563 -1.79894,0.58566 -1.6831,4.87164 -1.88946,6.22596" />
    </g>
    <g
       transform="translate(323.71521,541.63288)"
       id="g3">
      <path
         inkscape:connector-curvature="0"
         id="path5"
         style="fill:#ffffff"
         d="m 103.36,70.862 c 0,17.492 1.354,35.026 2.986,52.438 1.077,11.449 -9.533,11.378 -17.641,11.378 l -70.425,0 C 7.976,134.678 0.708,130.959 1.812,119.887 3.923,98.679 4.51,77.285 3.622,55.993 3.209,46.017 2.533,36.057 1.659,26.117 1.151,20.349 -0.395,14.392 3.683,9.443 9.274,2.656 24.568,4.185 32.416,3.615 43.054,2.842 53.694,2.071 64.334,1.3 c 7.889,-0.572 12.06,1.861 18.599,6.813 7.138,5.405 21.452,15.054 23.442,24.551 0.581,2.769 -1.017,6.928 -1.361,9.683 -1.18,9.45 -1.66,18.992 -1.66,28.512" />
      <path
         inkscape:connector-curvature="0"
         id="path7"
         style="fill:#737373"
         d="M 12.903,4.017 C -5.532,4.011 0.971,28.861 1.707,39.649 3.318,63.31 3.414,86.981 1.602,110.633 c -0.9,11.771 -3.336,25.059 13.619,25.059 l 26.763,0 39.762,0 c 6.703,0 19.252,2.044 23.727,-4.242 2.963,-4.162 1.765,-9.427 1.365,-14.116 -0.825,-9.673 -1.517,-19.358 -1.98,-29.055 -0.856,-17.891 -0.955,-36.197 2.406,-53.864 C 108.72,26.766 94.666,16.582 89.805,12.467 84.066,7.612 75.995,-0.554 67.868,0.034 49.545,1.362 31.223,2.691 12.897,4.021 M 2.345,124.331 C 5.685,108.299 5.041,90.232 5.041,73.984 5.041,55.251 3.879,36.426 1.888,17.8 0.515,4.961 16.54,5.786 24.882,5.181 37.684,4.253 50.485,3.324 63.286,2.396 c 9.825,-0.712 14.834,2.88 22.663,9.336 6.025,4.973 20.606,14.843 19.037,23.879 -3.314,19.064 -2.98,38.628 -1.896,57.875 0.479,8.507 1.108,17.008 1.848,25.498 0.451,5.193 1.449,11.74 -4.766,13.979 -4.647,1.676 -11.105,0.701 -15.906,0.701 l -32.4,0 -30.107,0 c -7.034,0 -19.406,0.68 -19.406,-9.33" />
      <path
         inkscape:connector-curvature="0"
         id="path9"
         style="fill:#f4f2f2"
         d="m 96.216,71.548 c 0,15.745 3.492,32.133 2.623,47.755 0,11.791 -14.245,9.237 -22.188,9.237 l -39.811,0 c -7.172,0 -22.119,2.45 -26.297,-5.213 -2.107,-3.865 -0.383,-9.886 -0.064,-13.963 0.912,-11.651 1.368,-23.341 1.368,-35.027 0,-11.417 -0.486,-22.835 -1.193,-34.229 C 10.297,34.364 8.577,27.427 9.671,21.683 11.869,10.123 29.24,12.087 38.019,11.4 44.475,10.892 50.931,10.387 57.387,9.881 59.289,9.73 66.253,7.988 67.932,9.052 c 1.81,0 2.909,17.572 3.56,19.592 2.722,8.433 10.092,6.877 17.566,7.239 4.452,0.216 10.204,-0.769 9.331,4.646 -1.647,10.225 -2.173,20.664 -2.173,31.013" />
      <path
         inkscape:connector-curvature="0"
         id="path11"
         style="fill:#adadad"
         d="m 68.272,5.029 c -0.822,5.697 -1.486,11.421 -1.957,17.158 -0.38,4.642 -2.701,16.41 1.112,20.224 8.04,8.04 28.983,-3.645 36.874,-7.78 -8.691,1.348 -20.479,3.727 -28.868,0.27 -6.817,-2.81 -6.378,-23.374 -7.16,-29.872" />
    </g>
  </g>
</svg>
