<?xml version="1.0" encoding="UTF-8" standalone="no"?>
<!-- Generator: Adobe Illustrator 12.0.0, SVG Export Plug-In . SVG Version: 6.00 Build 51448)  -->

<svg
   xmlns:dc="http://purl.org/dc/elements/1.1/"
   xmlns:cc="http://creativecommons.org/ns#"
   xmlns:rdf="http://www.w3.org/1999/02/22-rdf-syntax-ns#"
   xmlns:svg="http://www.w3.org/2000/svg"
   xmlns="http://www.w3.org/2000/svg"
   xmlns:xlink="http://www.w3.org/1999/xlink"
   xmlns:sodipodi="http://sodipodi.sourceforge.net/DTD/sodipodi-0.dtd"
   xmlns:inkscape="http://www.inkscape.org/namespaces/inkscape"
   id="Layer_1"
   sodipodi:docname="project-time.svg"
   space="preserve"
   inkscape:export-filename="/home/awehler/Downloads/project-time.png"
   viewBox="0 0 120 120"
   sodipodi:version="0.32"
   inkscape:export-xdpi="360"
   version="1.1"
   inkscape:export-ydpi="360"
   inkscape:version="0.91 r"
   width="120"
   height="120">
  <defs
     id="defs29">
    <linearGradient
       id="linearGradient3090"
       y2="-119.92"
       gradientUnits="userSpaceOnUse"
       y1="-110.73"
       gradientTransform="matrix(13.96,0,0,-13.96,-797.71,-1533.5)"
       x2="76.216003"
       x1="76.216003"
       inkscape:collect="always">
      <stop
         id="stop15"
         stop-color="#cccccc"
         offset="0" />
      <stop
         id="stop17"
         stop-color="#999e9e"
         offset="1" />
    </linearGradient>
    <linearGradient
       id="linearGradient3087"
       y2="981.92999"
       gradientUnits="userSpaceOnUse"
       y1="981.92999"
       gradientTransform="matrix(13.96,0,0,13.96,-2975.4,-13588)"
       x2="230.64"
       x1="233.61"
       inkscape:collect="always">
      <stop
         id="stop22"
         stop-color="#e3e3e3"
         offset="0" />
      <stop
         id="stop24"
         stop-color="#999e9e"
         offset="1" />
    </linearGradient>
    <linearGradient
       id="linearGradient3084"
       y2="980"
       gradientUnits="userSpaceOnUse"
       y1="980"
       gradientTransform="matrix(13.96,0,0,13.96,-2975.4,-13588)"
       x2="230.28"
       x1="233.96001"
       inkscape:collect="always">
      <stop
         id="stop29"
         stop-color="#8e8e8e"
         offset="0" />
      <stop
         id="stop31"
         stop-color="#353535"
         offset="1" />
    </linearGradient>
    <linearGradient
       id="linearGradient3078"
       y2="37.174"
       gradientUnits="userSpaceOnUse"
       y1="9.1709003"
       gradientTransform="matrix(13.96,0,0,13.96,-15.979,2.0501)"
       x2="20.118"
       x1="20.118"
       inkscape:collect="always">
      <stop
         id="stop57"
         stop-color="#e3e3e3"
         offset="0" />
      <stop
         id="stop59"
         stop-color="#999e9e"
         offset="1" />
    </linearGradient>
    <linearGradient
       id="linearGradient3075"
       y2="2395.1001"
       gradientUnits="userSpaceOnUse"
       y1="2415.8"
       gradientTransform="matrix(13.96,0,0,13.96,-11268,-33278)"
       x2="826.13"
       x1="826.13"
       inkscape:collect="always">
      <stop
         id="stop64"
         stop-color="#e3e3e3"
         offset="0" />
      <stop
         id="stop66"
         stop-color="#404040"
         offset="1" />
    </linearGradient>
    <linearGradient
       id="linearGradient3071"
       y2="2395.8999"
       gradientUnits="userSpaceOnUse"
       y1="2405.6001"
       gradientTransform="matrix(13.96,0,0,13.96,-11268,-33278)"
       x2="826.14001"
       x1="826.14001"
       inkscape:collect="always">
      <stop
         id="stop80"
         stop-color="#e0e0e0"
         offset="0" />
      <stop
         id="stop82"
         stop-color="#ffffff"
         offset="1" />
    </linearGradient>
    <linearGradient
       id="SVGID_9_"
       xlink:actuate="onLoad"
       x1="826.13"
       xlink:type="simple"
       gradientUnits="userSpaceOnUse"
       x2="826.13"
       xlink:show="other"
       gradientTransform="translate(-806.01,-2384)"
       y1="2395.3999"
       y2="2415.3999">
      <stop
         id="stop71"
         stop-color="#e0e0e0"
         offset="0" />
      <stop
         id="stop73"
         stop-color="#cfcfe3"
         offset=".7473" />
      <stop
         id="stop75"
         stop-color="#ababbf"
         offset="1" />
    </linearGradient>
    <linearGradient
       id="SVGID_6_"
       xlink:actuate="onLoad"
       x1="-716.13"
       xlink:type="simple"
       gradientUnits="userSpaceOnUse"
       x2="-720.03003"
       xlink:show="other"
       gradientTransform="matrix(0.5083,-0.8612,0.8612,0.5083,-581.31,-1167.2)"
       y1="1107.7"
       y2="1107.7">
      <stop
         id="stop50"
         stop-color="#8e8e8e"
         offset="0" />
      <stop
         id="stop52"
         stop-color="#353535"
         offset="1" />
    </linearGradient>
    <linearGradient
       id="SVGID_5_"
       xlink:actuate="onLoad"
       x1="-716.65002"
       xlink:type="simple"
       gradientUnits="userSpaceOnUse"
       x2="-719.44"
       xlink:show="other"
       gradientTransform="matrix(0.5083,-0.8612,0.8612,0.5083,-581.31,-1167.2)"
       y1="1108.7"
       y2="1108.7">
      <stop
         id="stop43"
         stop-color="#8e8e8e"
         offset="0" />
      <stop
         id="stop45"
         stop-color="#353535"
         offset="1" />
    </linearGradient>
    <linearGradient
       id="SVGID_4_"
       xlink:actuate="onLoad"
       x1="-716.91998"
       xlink:type="simple"
       gradientUnits="userSpaceOnUse"
       x2="-719.16998"
       xlink:show="other"
       gradientTransform="matrix(0.5083,-0.8612,0.8612,0.5083,-581.31,-1167.2)"
       y1="1109.2"
       y2="1109.2">
      <stop
         id="stop36"
         stop-color="#e3e3e3"
         offset="0" />
      <stop
         id="stop38"
         stop-color="#999e9e"
         offset="1" />
    </linearGradient>
  </defs>
  <sodipodi:namedview
     id="base"
     bordercolor="#666666"
     inkscape:pageshadow="2"
     inkscape:window-width="1446"
     fit-margin-left="10"
     fit-margin-right="10"
     pagecolor="#ffffff"
     inkscape:window-maximized="0"
     inkscape:zoom="4.582052"
     inkscape:window-x="45"
     showgrid="false"
     borderopacity="1.0"
     inkscape:current-layer="Layer_1"
     inkscape:cx="32.128702"
     inkscape:cy="67.156786"
     fit-margin-top="10"
     inkscape:window-y="24"
     fit-margin-bottom="10"
     inkscape:window-height="816"
     inkscape:pageopacity="0.0" />
  <g
     id="g3390"
     transform="matrix(0.23078255,0,0,0.23078255,-0.7609898,-3.9696565)">
    <g
       transform="matrix(0.72353,0,0,0.58407,-43.652,-99.375)"
       inkscape:label="Capa 1"
       id="layer1">
      <rect
         x="132.86"
         y="325.22"
         width="418.57001"
         height="154.28999"
         style="fill:#79a3dc;stroke:#0c3479;stroke-width:15"
         id="rect3498" />
      <rect
         x="374.85999"
         y="511.79001"
         width="252.86"
         height="161.42999"
         style="fill:#00d01b;stroke:#00a01b;stroke-width:15;stroke-miterlimit:3.9000001"
         id="rect3500" />
      <rect
         x="286.29001"
         y="707.78998"
         width="155.71001"
         height="157.14"
         style="fill:#f7ff00;stroke:#cddb00;stroke-width:15"
         id="rect3502" />
      <path
         d="m 124.84,273.78 0,14.875 -0.0625,0 0,14.875 14.156,0 0,-14.031 476,0 0,14.031 14.125,0 0,-14.031 0.0937,0 0,-15.719 -504.31,0 z"
         inkscape:connector-curvature="0"
         style="fill:#000000"
         id="rect3504" />
    </g>
    <g
       transform="matrix(0.61604,0,0,0.61604,212.47,185.82)"
       id="g3094">
      <g
         transform="translate(0,464)"
         id="g4">
        <rect
           x="0"
           y="0"
           width="42"
           height="36"
           style="fill:none"
           id="rect6" />
      </g>
      <path
         inkscape:connector-curvature="0"
         style="fill-opacity:0.2;stroke-opacity:0.2"
         d="m 314.5,142.48 c 15.816,-13.555 25.853,-33.657 25.881,-56.159 -0.0279,-40.957 -33.196,-74.111 -74.111,-74.139 -40.916,0.01396 -74.125,33.196 -74.125,74.111 0,22.182 9.7438,42.018 25.155,55.545 -35.108,9.8415 -65.777,30.25 -88.392,57.583 l -10.204,-6.0305 3.6574,-6.226 -25.825,-15.23 -37.719,63.963 25.741,15.216 4.16,-7.0217 10.847,6.4074 c -7.0496,18.999 -11,39.561 -11,61.031 0,95.665 76.177,173.53 171.27,176.2 l 0.0419,0.0838 5.0115,0 c 97.34,-0.0279 176.24,-78.927 176.3,-176.28 -0.0558,-80.156 -53.507,-147.64 -126.68,-169.05 z m -13.918,-28.422 0,-34.885 -71.305,0 0,31.339 c -4.5787,-6.9519 -7.245,-15.258 -7.2729,-24.22 0.0558,-24.429 19.795,-44.21 44.252,-44.252 24.429,0.0698 44.168,19.837 44.21,44.252 0,10.539 -3.7132,20.199 -9.8834,27.766 z"
         id="path10" />
      <path
         inkscape:connector-curvature="0"
         style="fill-opacity:0.4;stroke-opacity:0.4"
         d="m 287.33,146.84 c 25.071,-8.7387 43.065,-32.484 43.065,-60.515 0,-35.443 -28.729,-64.144 -64.172,-64.144 -35.415,0 -64.144,28.715 -64.158,64.144 0.014,27.682 17.561,51.176 42.158,60.194 l 0,0.0698 c -47.477,5.9049 -88.713,31.73 -115.07,68.946 l -5.514,-3.2247 1.9264,-3.2247 -20.535,-12.145 3.6434,-6.226 -8.6549,-5.1232 -27.626,46.848 8.641,5.0813 4.146,-7.0356 20.548,12.145 1.9543,-3.2107 5.7932,3.4201 c -9.5344,20.981 -14.993,44.182 -14.993,68.695 0,91.868 74.474,166.37 166.36,166.37 91.854,0 166.34,-74.502 166.34,-166.37 0.014,-84.274 -62.651,-153.69 -143.85,-164.7 z M 212.06,86.297 c 0.0419,-29.943 24.248,-54.135 54.191,-54.205 29.929,0.02792 54.163,24.262 54.163,54.205 0,23.047 -14.434,42.716 -34.745,50.548 l 0,-20.73 4.9696,0 0,-26.956 -51.413,0 0,26.956 4.9696,0 0,19.627 c -18.929,-8.4316 -32.135,-27.347 -32.135,-49.445 z"
         id="path12" />
      <path
         inkscape:connector-curvature="0"
         style="fill:url(#linearGradient3090)"
         d="m 202.06,76.343 c 0.014,-35.429 28.757,-64.158 64.158,-64.158 35.457,0 64.172,28.743 64.172,64.158 0,35.457 -28.729,64.158 -64.172,64.158 -35.401,0 -64.13,-28.701 -64.158,-64.158 z m 10.009,0 c 0.0419,29.943 24.248,54.135 54.191,54.219 29.929,-0.0838 54.163,-24.276 54.163,-54.219 0,-29.943 -24.234,-54.135 -54.163,-54.205 -29.943,0.09771 -54.149,24.29 -54.191,54.205 z"
         id="path19" />
      <rect
         x="244.21001"
         y="89.157997"
         width="41.445999"
         height="60.960999"
         style="fill:url(#linearGradient3087)"
         id="rect26" />
      <rect
         x="239.2"
         y="79.177002"
         width="51.455002"
         height="26.955999"
         style="fill:url(#linearGradient3084)"
         id="rect33" />
      <polygon
         transform="matrix(13.96,0,0,13.96,-15.979,2.0501)"
         points="9.325,16.559 7.465,15.463 8.609,13.522 10.468,14.621 "
         style="fill:url(#SVGID_4_)"
         id="polygon40" />
      <polygon
         transform="matrix(13.96,0,0,13.96,-15.979,2.0501)"
         points="8.72,16.519 6.861,15.421 8.281,13.015 10.14,14.113 "
         style="fill:url(#SVGID_5_)"
         id="polygon47" />
      <polygon
         transform="matrix(13.96,0,0,13.96,-15.979,2.0501)"
         points="6.951,16.154 6.332,15.787 8.311,12.433 8.93,12.8 "
         style="fill:url(#SVGID_6_)"
         id="polygon54" />
      <path
         inkscape:connector-curvature="0"
         style="fill:url(#linearGradient3078)"
         d="m 264.86,135.21 0,-0.0279 c -91.868,0.0279 -166.36,74.516 -166.36,166.38 0,91.84 74.474,166.31 166.36,166.31 91.882,0 166.34,-74.474 166.34,-166.31 0,-91.91 -74.488,-166.36 -166.34,-166.36 z"
         id="path61" />
      <path
         inkscape:connector-curvature="0"
         style="fill:url(#linearGradient3075)"
         d="m 120.36,301.55 c 0,-79.835 64.689,-144.52 144.52,-144.54 l 0,4.9556 0,4.9556 c -74.335,0 -134.56,60.291 -134.56,134.6 0.11168,74.293 60.222,134.42 134.56,134.54 74.335,0 134.54,-60.236 134.6,-134.54 -0.05,-74.3 -60.3,-134.58 -134.59,-134.58 l 0,-4.9696 0,-4.9417 c 79.793,0 144.48,64.731 144.54,144.54 -0.0558,79.807 -64.744,144.54 -144.54,144.54 -79.835,0 -144.52,-64.731 -144.52,-144.55 z"
         id="path68" />
      <circle
         r="9.9969997"
         transform="matrix(13.96,0,0,13.96,-15.979,2.0501)"
         cy="21.452999"
         cx="20.120001"
         style="fill:url(#SVGID_9_)"
         id="circle77" />
      <path
         inkscape:connector-curvature="0"
         style="fill:url(#linearGradient3071)"
         d="m 398.98,303.58 c 0,-74.726 -59.956,-135.31 -133.9,-135.34 -73.986,0.014 -133.94,60.612 -133.94,135.34 l 267.84,0 z"
         id="path84" />
      <g
         transform="matrix(13.96,0,0,13.96,-15.979,2.0501)"
         style="fill-opacity:0.7;stroke-opacity:0.7"
         id="g86">
        <linearGradient
           y2="-129.58"
           xlink:type="simple"
           gradientTransform="matrix(1,0,0,-1,-56,-110)"
           x2="86.115997"
           gradientUnits="userSpaceOnUse"
           x1="76.301003"
           y1="-129.58"
           xlink:show="other"
           xlink:actuate="onLoad"
           id="SVGID_11_">
          <stop
             offset="0"
             stop-color="#f90000"
             id="stop89" />
          <stop
             offset="1"
             stop-color="#ababbf"
             id="stop91" />
        </linearGradient>
        <path
           inkscape:connector-curvature="0"
           style="fill:url(#SVGID_11_)"
           d="m 20.3,11.467 0,11.331 7.626,4.89 c 1.368,-1.711 2.189,-3.875 2.189,-6.232 -10e-4,-5.46 -4.378,-9.891 -9.815,-9.989 z"
           id="path93" />
      </g>
      <path
         inkscape:connector-curvature="0"
         style="fill:#1c1c1c;fill-opacity:0.8;stroke-opacity:0.8"
         d="m 208.26,313.56 c 0,-31.283 25.351,-56.648 56.648,-56.648 31.242,0 56.606,25.351 56.606,56.648 -0.0279,31.228 -25.351,56.578 -56.606,56.578 -31.339,0 -56.648,-25.351 -56.648,-56.578 z m 4.9696,0 c 0.0419,28.491 23.103,51.567 51.678,51.636 28.478,-0.0698 51.581,-23.103 51.609,-51.636 -0.0279,-28.505 -23.075,-51.622 -51.609,-51.664 -28.561,0.0558 -51.622,23.159 -51.678,51.664 z"
         id="path95" />
    </g>
  </g>
  <metadata
     id="metadata62">
    <rdf:RDF>
      <cc:Work>
        <dc:format>image/svg+xml</dc:format>
        <dc:type
           rdf:resource="http://purl.org/dc/dcmitype/StillImage" />
        <cc:license
           rdf:resource="http://creativecommons.org/publicdomain/zero/1.0/" />
        <dc:publisher>
          <cc:Agent
             rdf:about="http://openclipart.org/">
            <dc:title>Openclipart</dc:title>
          </cc:Agent>
        </dc:publisher>
        <dc:title>Time Project</dc:title>
        <dc:date>2013-01-26T11:04:39</dc:date>
        <dc:description />
        <dc:source>https://openclipart.org/detail/174535/time-project-by-lbear-174535</dc:source>
        <dc:creator>
          <cc:Agent>
            <dc:title>lbear</dc:title>
          </cc:Agent>
        </dc:creator>
        <dc:subject>
          <rdf:Bag>
            <rdf:li>Project</rdf:li>
            <rdf:li>proyecto</rdf:li>
            <rdf:li>tiempo de proyectos</rdf:li>
            <rdf:li>time</rdf:li>
          </rdf:Bag>
        </dc:subject>
      </cc:Work>
      <cc:License
         rdf:about="http://creativecommons.org/publicdomain/zero/1.0/">
        <cc:permits
           rdf:resource="http://creativecommons.org/ns#Reproduction" />
        <cc:permits
           rdf:resource="http://creativecommons.org/ns#Distribution" />
        <cc:permits
           rdf:resource="http://creativecommons.org/ns#DerivativeWorks" />
      </cc:License>
    </rdf:RDF>
  </metadata>
</svg>
