<?xml version="1.0" encoding="UTF-8" standalone="no"?>
<!-- Created with Inkscape (http://www.inkscape.org/) -->
<svg
    xmlns:inkscape="http://www.inkscape.org/namespaces/inkscape"
    xmlns:rdf="http://www.w3.org/1999/02/22-rdf-syntax-ns#"
    xmlns="http://www.w3.org/2000/svg"
    xmlns:cc="http://creativecommons.org/ns#"
    xmlns:dc="http://purl.org/dc/elements/1.1/"
    xmlns:sodipodi="http://sodipodi.sourceforge.net/DTD/sodipodi-0.dtd"
    xmlns:svg="http://www.w3.org/2000/svg"
    xmlns:ns1="http://sozi.baierouge.fr"
    xmlns:xlink="http://www.w3.org/1999/xlink"
    id="svg3977"
    sodipodi:docname="recreational_silhouettes.svg"
    viewBox="0 0 4101.2 2601.9"
    version="1.1"
    inkscape:version="0.48.1 r9760"
  >
  <sodipodi:namedview
      id="base"
      bordercolor="#666666"
      inkscape:pageshadow="2"
      inkscape:window-y="-3"
      fit-margin-left="0"
      pagecolor="#ffffff"
      inkscape:window-height="951"
      inkscape:window-maximized="1"
      inkscape:zoom="0.175"
      inkscape:window-x="-3"
      showgrid="false"
      borderopacity="1.0"
      inkscape:current-layer="layer1"
      inkscape:cx="1958.5307"
      inkscape:cy="1114.3434"
      fit-margin-top="0"
      fit-margin-right="0"
      fit-margin-bottom="0"
      inkscape:window-width="1280"
      inkscape:pageopacity="0.0"
      inkscape:document-units="px"
  />
  <g
      id="layer1"
      inkscape:label="Ebene 1"
      inkscape:groupmode="layer"
      transform="translate(1509.9 955.17)"
    >
    <g
        id="g4101"
        style="fill:#194a70"
        transform="matrix(.21487 0 0 .21487 -1364.7 -920.88)"
      >
      <g
          id="g3383"
          style="fill:#194a70"
          transform="translate(3211.3 -283.33)"
        >
        <path
            id="path2525"
            sodipodi:nodetypes="ccccccccccccccc"
            style="fill-rule:evenodd;fill:#194a70"
            inkscape:connector-curvature="0"
            d="m-2792.2 765.24c-8.3057 38.528-0.3142 72.393 8.7778 107.97 54.984-8.08 88.379-13.461 125.52-19.311-1.0438 24.409 8.0667 35.279 28.089 31.6-9.6352 188.34-10.026 369.75-10.534 551.25 26.308 18.375 55.819 7.9158 84.268 7.0223 15.67-189.75 9.4297-362.04 14.045-575.83 23.632 6.0763 18.609-16.503 17.556-35.112 55.142-12.741 114.69-21.079 172.05-31.6-51.823-27.546-106.19-50.85-165.02-66.712-9.7371-12.174-23.298-5.2302-35.112-7.0223l-7.0223-19.311c-28.951-1.8257-62.586-5.785-75.49 6.1445-0.062 3.199 0.028 27.296-15.8 24.578-57.916 10.241-91.731 16.093-141.32 26.334z"
        />
        <path
            id="path2527"
            sodipodi:nodetypes="ccccccccccccccccc"
            style="fill-rule:evenodd;fill:#194a70"
            inkscape:connector-curvature="0"
            d="m-3121.4 485.22c-3.2497 40.391-4.8034 80.103 3.5112 115.87 1.1953 20.141 30.518 23.094 73.734 17.556 9.1699-8.9718 30.729-10.864 56.178-10.533 6.8784 8.4926-20.037 22.321 26.334 24.578 5.5976 221.53 3.821 435.69 5.2667 653.07 34.526 12.23 69.053 5.6979 103.58-5.2667-3.5386-221.79-13.964-443.58-7.0223-665.36 26.334 6.437 35.112-2.3407 26.334-26.334 49.741-21.067 96.365-35.898 149.22-63.201l-1.7556-15.8c-20.583-12.874-95.971-25.748-143.96-38.623-10.814-2.6213-16.51-0.12441-22.823 1.7556l0.0001-15.8c-34.452 0.4733-64.151-6.1824-107.09 7.0223l-0.8778 22.822c-55.003-0.58731-79.109-13.224-160.64-1.7556z"
        />
        <path
            id="path2529"
            sodipodi:nodetypes="cccccccccccccccscc"
            style="fill-rule:evenodd;fill:#194a70"
            inkscape:connector-curvature="0"
            d="m-2478.9 546.67c-85.441 49.852-26.888 155.09 5.2667 149.22 61.335-10.684 40.96-44.417 50.912-52.667 11.704-5.852 22.237-5.8519 31.6 0 6.6903 20.363 15.247 37.693 40.378 28.089 22.53 256.41 36.801 515.58 52.667 774.21 31.563 22.759 71.378 7.5982 100.07-7.0223l-84.268-767.19c12.434-2.2196 27.326-2.3915 26.334-15.8 38.623 8.2469 77.245 40.188 115.87 63.201 25.098 2.5196 49.092 3.1056 64.956-10.533-59.774-47.379-117.43-95.288-186.09-140.45-7.8507-4.5372-16.162-7.6912-26.334-5.2667l-1.7556-26.334c-23.578-11.044-40.32-1.581-59.69 0-13.963 3.1029-1.2347 38.312-1.7555 36.867-2.3815-6.6061-73.734 10.533-73.734 10.533-19.058-26.043-37.684-45.607-54.423-36.867z"
        />
        <path
            id="path2551"
            sodipodi:nodetypes="ccccccccccccccc"
            style="fill-rule:evenodd;fill:#194a70"
            inkscape:connector-curvature="0"
            d="m-2133 339.51c-31.87-8.5239-51.677-37.152-77.245-56.178-17.478 35.118-11.537 116.34 45.645 298.45 31.22-32.478 40.1-78.097 107.09-89.534l61.445 7.0223c24.1 117.3 6.2883 206.67 5.2667 307.23-2.778 158.59-9.1874 302.66-14.045 452.94-1.918 90.217-18.779 135.61-31.6 193.11 5.9151 61.183 191.7 32.218 184.34 3.5112-15.855-68.203-33.933-125.74-38.623-247.54 5.0048-172.63 15.483-345.26 29.845-517.89 8.2543-59.499 17.148-118.23 14.045-191.36 14.63 2.6176 29.26 4.3142 43.889 0 3.5112-47.401 3.5112-95.971 0-145.71-105.81-13.094-219.96-9.5008-330.05-14.045z"
        />
        <path
            id="path2553"
            sodipodi:nodetypes="cccccccccccccccsccccccccccccccccccccccccccccccccccc"
            style="fill-rule:evenodd;fill:#194a70"
            inkscape:connector-curvature="0"
            d="m-1469.4 390.42c21.921-1.0361 40.754-3.6157 71.979 0 5.534 44.226 0.5898 71.986-5.2667 98.312-8.7179 1.8156-17.216 3.8508-21.067 10.533-24.069 1.4751-47.796 1.581-70.223-3.5112-11.851-5.8028-21.751-12.256-14.045-24.578-22.989-8.1095-69.053-4.6815-103.58-7.0223-2.7821 18.461-7.1207 33.462-24.578 19.311-12.101 1.4906-27.426 0.83237-35.112 5.2667-4.7762-5.8519-6.9833-11.704-3.5112-17.556-80.574 21.444-48.179 100.95-45.645 152.74 51.718 52.106 83.924 178.86-3.5112 249.29 2.3898 16.971 2.2201 33.941-5.2667 50.912-6.5884 56.399 13.32 101.49 129.91 105.33 47.597-0.5852 93.379-1.1704 143.96-1.7556-5.0037-3.0022 12.438-8.7754 22.822-8.7778 12.082 0 30.632-0.1968 29.845 0 8.1679 25.138 1.2522 35.193 1.7556 52.667-9.9126-1.6754-18.012 0.2446-26.334 1.7556l3.5111 10.534 21.067-1.7556c11.376 21.624 4.3716 45.289 1.7556 68.467 53.719 5.033 26.675 32.092 10.533 56.178-9.7131 29.315-12.715 55.803 8.7779 71.979 21.31 29.298 38.941 59.004 1.7556 94.801-14.256 30.504-9.3969 35.839-9.2039 51.426 26.477 5.6771 58.035-2.1949 79.427 17.042 38.768 45.718 11.081 58.208-3.5111 77.245-55.746 23.646-156.9 52.336-238.76 0-25.713-16.133-45.59-52.128 3.5111-77.245 18.501-7.3386 37.778-11.571 57.934-12.289-1.7233-15.242 6.0181-38.371-5.2667-45.645-30.056-35.005-29.226-72.386 5.2667-112.36 13.935-20.469 13.883-43.036-5.2667-68.467-3.767-17.859-27.939-35.038 14.045-54.423l-1.7556-64.956 26.334 1.7555v-14.045c-76.832 1.3092-154.63 13.249-229.98-1.7555-85.11-25.934-88.513-85.913-96.557-143.96-11.837-21.588-9.7893-37.623-5.2667-52.667-58.624-49.398-59.367-182.97-1.7556-240.51-0.5777-27.648 0.9981-54.759 7.0223-80.756 35.748-164.81 122.13-125.55 187.85-136.93 31.015 4.0033 62.03 6.1008 93.046 3.5112l-1.7556-12.289c-8.987-1.2749-13.332-0.22892-19.311 0l-3.5111-21.067c12.723 3.6054 22.072 4.9614 29.845 5.2667l3.5112 10.533c5.4142-16.477 14.214-17.155 24.578-10.533z"
        />
        <path
            id="path2555"
            sodipodi:nodetypes="ccccccccscccccccccccccccccccccccccccccsccccccc"
            style="fill-rule:evenodd;fill:#194a70"
            inkscape:connector-curvature="0"
            d="m-1351.8 530.87c-73.824 2.1491-160.37 182.92-15.8 242.27 41.606-2.3866 83.533 11.264 122.89-103.58 20.018-9.8943 39.244 14.238 61.445-89.534 5.2562-59.688 14.64-119.97 28.089-180.82 14.99-6.9674 2.6664-71.295 47.401-15.8 61.04 32.454 129.21 29.261 200.14 12.289 8.8102 13.556 11.687 9.3117 15.8 8.7779-4.2307 7.0512 61.431 218.19 63.201 226.47 5.5071 25.779 34.39 47.548 31.6 38.623 40.963 52.951 81.927 18.727 122.89 28.089 4.5558 16.731 17.322 10.883 28.089 10.533 95.12 38.116 80.478-1.1005 110.6-8.7779 24.394 2.0064 53.809-0.17078 71.979 7.0223 9.9034-9.4534 14.636-6.8425 17.556 0 2.6584 25.643 11.29 9.8088 15.8-1.7556 0.77752-4.0469 9.1619-9.0014 12.289 0 1.8835 26.678 14.937 20.756 21.067 3.5112 10.222-7.084 7.5795 0.53355 10.533 1.7556 4.3649 28.095 10.894 16.153 17.556 1.7556 5.2042-1.8409 11.047-8.786 14.045 7.0223 4.6815 24.587 9.3631 5.0323 14.045 3.5112 4.7267-13.82 6.1795-1.4503 8.7779 1.7556 5.6487 17.929 11.653 6.9642 18.434-0.00001 0.89593-8.4096 41.523 3.5095 11.411-26.334-3.7451-3.0425-7.3319-5.6103-8.7779-1.7556-2.7138 1.4938-4.1019 7.6275-8.9183 1.7623-3.0377-12.91-10.224-9.0058-13.034-3.7241-4.1759 0.10971-15.861 3.454-16.759-3.7241-1.474-8.8441-7.0337-11.789-13.034-5.5862-9.3514 9.6541-21.269 2.6208-20.483 0-4.5491-15.263-7.7363-6.0119-11.172-1.2414-3.6332-0.96315-12.21 9.9381-10.552-3.7241-5.2839-4.5532-10.736-11.295-14.897-1.2414-12.914 8.0286-16.71 1.2393-20.483-5.5862-13.573 5.1455-17.802 9.9432-47.172 0-11.166 2.2822-27.2-0.30316-46.552-6.2069-29.711-71.086-74.392-32.39-112.97-38.483-31.95 0.11247-60.57-3.1809-100.39-12.789-12.702-3.0648-30.558 6.8196-30.572 22.609-55.179-5.9286-52.881-248.36-119.38-284.4-22.622-57.483-119.16-50.904-240.51-22.822-40.195 8.1543-39.964 41.841-50.912 68.467-12.289 66.712-21.531 150.18-36.867 200.14-4.6326 40.576-12.553 28.548-19.311 35.112-22.475-102.97-65.302-100.58-107.09-103.58z"
        />
        <path
            id="path2557"
            sodipodi:nodetypes="ccccccccccccc"
            style="fill-rule:evenodd;fill:#194a70"
            inkscape:connector-curvature="0"
            d="m-133.42 416.76c1.8935-39.855 50.269-80.317 117.62-87.779-3.1662-5.2485 53.971-30.895 64.956-24.578 12.324-1.7039 24.294-3.937 33.356-10.533 33.162 71.891 50.85 146.1 50.912 222.96-16.762-0.64786-24.885 22.41-40.451-1.0418-50.897 0.64237-101.79-1.2993-152.66 1.0418-37.061-11.314-59.815-29.782-73.734-52.667-3.972 19.946-27.914 31.905-64.956 38.623-56.178 9.6805-112.36 15.763-168.54 29.845-18.234 34.374-24.499 12.894-33.356 3.5112-27.321-11.521-54.253-41.691-3.5112-107.09 90.11-4.1076 165.25-26.517 270.36-12.289z"
        />
        <path
            id="path2559"
            sodipodi:nodetypes="cccccccccccccccc"
            style="fill-rule:evenodd;fill:#194a70"
            inkscape:connector-curvature="0"
            d="m-528.43 843.36c-8.8033-10.117-46.243-43.333 3.5112-86.023l205.4-10.533c30.563-2.0875 62.796-18.081 98.312-61.445 1.9306-9.6164 59.105-11.505 64.956-3.5112 18.651 1.6036 191.61 110.34 179.58 119.18-12.958 4.2454-25.735 7.0481-37.062-1.7556-36.084-24.08-67.529-50.48-112.68-70.028-10.1 5.4753-17.688 4.2549-22.822-3.5112-15.118-4.5841-18.946 2.1208-24.578 7.0223 2.3924 9.5698-78.274 83.241-94.801 84.268-38.91 12.043-112.64 10.63-110.6 8.7779 0.40108 18.653-3.3535 25.02-19.311 14.045-10.177 4.6897-21.746 7.0601-36.867 3.5112-1.6922-3.959-0.31272-8.4358-1.7556-14.045-30.131 3.1881-59.627 3.1967-91.29 14.045z"
        />
        <path
            id="path2561"
            sodipodi:nodetypes="cscccsccccccccc"
            style="fill-rule:evenodd;fill:#194a70"
            inkscape:connector-curvature="0"
            d="m238.76 297.38c0-3.7369 119.38-10.775 119.38 5.2667 0 7.0223 3.5112 47.401 3.5112 47.401 55.761-20.82 109.04-19.325 161.51-10.533 38.4 21.894 60.749 45.023 56.178 70.223-5.4048 73.852-36.829 51.006-49.156 40.378-44.891-38.702-53.717-7.103-75.49 10.533-7.4963 100.44-18.745 200.13-10.533 303.71 30.576 35.697 74.818 71.393 87.779 107.09-9.0722 24.876-15.103 40.628-17.556 45.645-18.726 6.1777-37.452 1.6343-56.178-1.7556l-17.556-19.311c0.77799 56.757 2.3566 115.92 0 163.27-60.6 17.621-120.25 37.624-200.14 7.0223-7.2629-254.09-4.0992-511.65-1.7556-768.94z"
        />
        <path
            id="path2563"
            sodipodi:nodetypes="cccccccccccccccscc"
            style="fill-rule:evenodd;fill:#194a70"
            inkscape:connector-curvature="0"
            d="m208.91 1240.1c27.088-7.8851 38.964-25.911 93.046-15.8l5.2667 45.645c38.697-11.847 76.367-27.117 124.65-7.0223 19.59 10.764 23.065-1.4927 63.201 38.623 20.859 56.116-10.058 40.542-29.845 40.378-13.614-0.3229-20.694-5.5462-21.067-15.8-29.625 3.2916-38.537 19.012-52.667 31.6-2.4575 119.85-6.5212 238.09-12.289 354.63 36.432 38.405 76.606 78.681 107.09 114.11-0.36721 39.277-7.2176 59.104-14.045 79.001-20.759 11.674-30.756 1.8233-45.645 1.7555l-19.311-19.311c-12.289-9.1603-24.578-32.489-36.867-54.423 0.58519 58.599 1.1704 109.15 1.7556 161.51 2.5649 0.855-52.767 12.841-70.223 10.534-10.443-1.3804-110.6-14.045-110.6-14.045-10.731-242.17 11.704-500.92 17.556-751.39z"
        />
        <path
            id="path2565"
            sodipodi:nodetypes="ccccccccccccccccccccccccc"
            style="fill-rule:evenodd;fill:#194a70"
            inkscape:connector-curvature="0"
            d="m14.045 1027.7c28.995-77.6 151.52-197.68 105.42-194.15-69.249 21.69-125.48 73.09-137.23 156.04-7.4466 38.886 1.7718 53.132 10.746 59.175 21.934 12.896 31.078 51.372 29.845 110.6l1.7556 54.423-22.822 1.7556c-8.4676 1.9967-4.1544 9.1058-5.2667 14.045l26.334 5.2667c1.1704 38.021 2.3408 56.573 3.5112 84.268-10.88 1.9943-27.188 2.9053-31.813 11.154-8.2986 13.939-2.1278 38.002-5.0537 57.313 3.5227 4.6237 7.1419 8.7649 12.289 5.2667-9.1265 273.22-20.175 549.33-26.334 818.1 22.923 24.299 55.371 8.1124 84.268 7.0223 4.5091-272.95 1.1936-543.94 17.556-819.85l7.0223-1.7556c0.92473-23.685 3.6827-46.758 0-71.979-9.841-3.7793-20.239-6.1662-33.356-1.7556 1.1704-30.43 2.3408-60.86 3.5112-91.29h12.289c7.5624-14.821 1.8065-21.318-3.5112-28.089l-8.7779 1.7556-5.2667-105.33c-1.0871-40.331-20.944-33.25-35.112-71.979z"
        />
        <path
            id="path2567"
            sodipodi:nodetypes="ccccccccccccccccccccccccccccccccccccccccccccccccccccccccccccccccc"
            style="fill-rule:evenodd;fill:#194a70"
            inkscape:connector-curvature="0"
            d="m-814.59 996.1c-13.892 5.3897-7.0983 14.227-1.7556 22.823 1.2685 5.2539 59.486-8.1037 35.112 61.445 2.863-0.7345-56.687 86.646-52.667 154.49 8.9146 14.478-28.888 82.384-49.156 70.223 3.0122 10.602 5.8481 21.34 29.845 15.8 30.69 8.2555 60.387 9.5639 87.779-5.2667 14.045 2.5774 28.089 6.7933 42.134-1.7556-40.437-36.195-17.281-111.1 17.556-193.11 10.635-4.3751 21.121-11.473 33.356 0-1.347 19.72-4.0362 38.098-7.0223 56.178 31.77 9.7024 55.171 2.6668 82.512 3.5111 10.447-15.033 23.439-28.538 42.134-38.623 5.4644-4.9931 8.4971-10.473 29.845-12.289l6.0205 1.0662 0.93103-6.8276 5.8966 5.2759 4.3448-8.6897 5.5862 4.9655 1.8621-7.7586 7.4483 7.138 2.7931-8.069 7.1379 4.3448 3.4138-6.8276 8.6897 6.2069 4.9655-7.1379 7.7586 5.8965 4.6552-7.4482 8.069 6.2069 4.6552-7.4483 9 6.2069 5.8966-5.5862 6.2069 4.6552 9-6.5173 5.2759 7.4483 5.8966-7.4483 9.6207 6.8276 6.5172-8.069 8.3793 5.8966 7.7586-6.2069 4.9655 6.5172 7.1379-6.8276 7.7586 6.8276 7.4483-6.8276 6.2069 8.069 6.8276-7.4483 9 3.7242 5.2759-5.2759 8.3793 4.9655 4.3448-6.2069 7.4483 5.2759 8.3793-6.5173 6.5172 7.7587 7.4483-8.069 10.241-23.586c-4.0422-3.3613-0.66588-7.4644-19.862-9.3103 1.464-5.5266 3.9518-10.541-0.93103-19.241-6.2642-1.0695-11.708-4.6015-21.103 3.7241 0.81894 15.606-8.5902 13.312-13.655 18.621-77.474-0.19-156.8-4.0882-235.86-7.4483-17.073-18.152-32.989-23.571-48.414-23.586-17.829-0.2084-22.142-15.285-23.586-33.517-27.278-14.998-48.765-11.176-69.517-4.9655l-12.414 8.6896c-31.694-20.024-67.861-26.632-109.48-16.869z"
        />
        <path
            id="path2569"
            sodipodi:nodetypes="cccccccsccccccccccccccccccc"
            style="fill-rule:evenodd;fill:#194a70"
            inkscape:connector-curvature="0"
            d="m-3030.1 1544.7c10.281 10.783 24.255 24.336 43.889 42.134-3.4722 31.728-12.278 50.593-17.556 73.734-13.285 19.211-37.538 20.143-57.056 28.967-20.999-8.5987-40.108-28.543-63.201-24.578-26.818 96.723 50.912 91.23 76.368 115.87l-13.167 1.7556s-8.2975 9.9142-0.8778 14.922c15.111 10.2 23.796 8.0279 23.7 7.9001 8.1264 257.48 20.61 514.97 20.189 772.45-6.4223 24.84-45.552 76.765-0.8778 140.45-0.8105 2.1704 29.035 33.385 67.59 31.6 24.191-1.8847 30.877-9.6041 34.234-18.434-18.488-19.967-36.685-39.752-36.867-48.278 2.5499-20.482 4.9992-40.963 16.678-61.445 4.8264-1.4601 9.5747-2.7641 16.678-8.7779 13.993 15.78 24.863 19.691 27.211-8.7779h9.6557c11.417 5.894 21.582 3.0186 35.112 23.7 7.5152-0.1643 9.9609 1.3612 23.7-0.8778l8.7779-0.8778c-17.713-115.57-75.753-83.575-89.534-105.33-3.5582-0.6898-7.4653 0.017-8.7779-9.6557-1.463-250.17-15.145-497.28-4.3889-750.51 35.951-3.88 30.876-17.228 6.1445-35.112 12.453-43.793 50.351-63.202 11.411-156.25-45.322-47.505-102.85-58.337-129.03-24.578z"
        />
        <path
            id="path2571"
            sodipodi:nodetypes="ccccccccccccccccccccccccc"
            style="fill-rule:evenodd;fill:#194a70"
            inkscape:connector-curvature="0"
            d="m-2786.1 1675.5 28.967 35.989-16.678 41.256-22.822 16.678c-17.39-3.1941-28.1-23.089-41.256-36.867-50.204 59.49-18.019 93.536-9.6557 110.6 17.059 17.12 30.688 17.092 45.645 23.7l-1.7556 6.1445c-5.1874-4.0717-10.274-7.7382-13.167-2.6333l-0.8778 14.922c4.1164 9.4592 11.405 10.987 20.189 8.7778l9.6557 16.678c-3.3049 208.83-11.704 412.56-17.556 618.84-22.403 48.064-77.141 51.074-40.378 138.69 20.771 12.648 11.97 38.439 90.412 25.456 1.6374-11.411-8.7228-22.822-15.8-34.234 25.071 3.1121 25.71-11.693 15.8-34.234 6.4304-6.1579 13.523-10.991 24.578-7.9001 4.4698 17.909 15.899 24.218 27.211 30.723 8.1431-24.214 29.559-28.518 16.678-84.268-11.556-16.752-22.228-33.946-47.401-43.889 2.101-217.1 19.936-429.67 26.334-651.32 27.592 10.759 36.303-32.652 6.1445-27.211 12.387-48.038 70.59-62.595 28.967-150.1-28.831-27.958-59.137-52.159-113.23-15.8z"
        />
        <path
            id="path2573"
            sodipodi:nodetypes="cccccccccccccccccccccccccc"
            style="fill-rule:evenodd;fill:#194a70"
            inkscape:connector-curvature="0"
            d="m-2603.5 1849.3 25.456 10.533-0.8777 43.012c-8.1326 5.3843-18.611 9.9868-20.189 17.556-15.717 0.8996-24.461-8.6615-35.989-14.045-18.847 34.574 9.3712 50.323 22.822 71.979l0.8778 12.289c-4.9741-0.7124-9.9483-6.0401-14.922 1.7556-4.9045 4.6815-2.8115 9.3631-0.8778 14.045 7.7397 11.487 12.948 10.319 18.434 10.533-1.9361 169.71 1.2582 339.41-11.411 509.12-33.314 59.944-24.601 66.1-20.189 94.801 26.625 31.266 46.999 36.32 66.712 23.7-2.3319-11.405-3.2662-21.879-12.289-37.745-3.7284-8.8322 1.6036-15.399 7.0224-21.945 1.6372 5.9703 1.6931 13.522 12.289 10.533 10.881-0.2012 9.1797-7.9516 8.7779-14.922-0.6293-3.789-4.6377-6.4517-12.289-7.9001 4.0018-5.4559 7.7818-11.355 14.045-12.289l18.434 14.922c5.1017-13.014 22.239-11.585 6.1445-50.034-5.1808-13.018-11.569-24.023-23.7-25.456 2.6328-171.75 0.4149-341.08 7.9001-515.26 37.649 23.241 32.341-20.171 9.6557-14.922 9.464-35.824 50.111-50.86 15.8-115.87-27.842-16.588-56.038-41.679-81.634-4.3889z"
        />
        <path
            id="path2575"
            sodipodi:nodetypes="ccccccccccccccsccscccccccccccccc"
            style="fill-rule:evenodd;fill:#194a70"
            inkscape:connector-curvature="0"
            d="m-2454.3 1890.6c6.9489 8.9974 9.6039 19.426 22.822 26.334v28.967c-4.7042 5.0194-8.875 8.972-15.8 18.434-11.425 3.8179-15.553 0.3381-22.822 0-12.593-15.627-21-22.083-28.967-23.7-9.5859 7.223-10.845 24.438-8.7778 45.645 17.274 37.021 37.616 34.148 57.056 43.012l-0.8778 11.411c-4.3889-4.7692-8.7779-7.1737-13.167-2.6334l0.8777 13.167c2.3995 12.405 10.799 6.8106 17.556 6.1445 9.1535 139 9.6939 275.85 9.6557 412.56-22.756 29.39-35.185 60.845 0 101.82-6.8676 9.9893 46.274 25.898 63.201-3.5112 1.8054-3.1367-21.945-19.311-21.945-19.311 6.1445-1.3014 12.289 3.9272 18.434-7.9001 0 0 1.3836-10.627 0-16.678-2.6208-11.462-18.929-7.6723-19.311-6.1445 2.4374-8.3741 6.0422-16.415 24.578-20.189 11.008 7.9718 21.067 14.044 34.234 26.334 10.971-15.047 20.61-31.017 1.7556-66.712-23.456-21.31-27.342-15.222-40.378-21.945-8.2313-133.74-9.609-272.97-6.1445-416.07h5.2667c22.974 12.422 20.525 2.598 26.334 0 3.4312-4.0255 5.2961-8.573 1.7555-14.922-7.6731-5.1409-15.646-12.377-21.067-1.7556l-11.411-2.6334 2.6334-17.556c7.3376-24.255 24.894-34.885 6.1445-93.923-43.389-31.77-60.679-11.342-81.634 1.7556z"
        />
        <path
            id="path2577"
            sodipodi:nodetypes="ccccccccccccccccccccccccccc"
            style="fill-rule:evenodd;fill:#194a70"
            inkscape:connector-curvature="0"
            d="m-2297.2 1910.8c6.1445 0.8778 25.456 17.556 25.456 17.556l-0.8778 26.334c0.3338 19.958-13.969 17.962-21.945 25.456l-17.556-13.167c-8.1293-11.68-12.384-3.9865-18.434-5.2667-8.4432 44.704 3.8249 58.341 18.434 68.467l17.556 8.7779-7.0223 11.411c-4.4436 18.994 5.7689 18.447 14.922 19.311 1.9574 139.28 12.858 278.55 19.311 417.83-13.012 9.8575-24.848 23.481-26.334 70.223 12.797 49.38 38.7 60.636 77.245 35.112-5.7907-7.2537-13.87-16.796-21.945-26.334 3.4731-7.353 2.9008-18.751 1.7556-30.722 6.3318 10.568 14.448 13.104 25.456 2.6333 4.1009-3.2152-0.1528-12.696-5.2667-22.822l13.167-7.9c7.0223 7.9989 14.045 13.582 21.067 19.311 7.8682-8.7446 15.682-17.558 5.2667-49.156-4.8743-24.908-20.474-24.79-31.6-35.112-9.9938-136.26-19.858-266.23-29.845-410.8 8.4826 7.0087 14.889 3.6373 21.067-0.8778 2.0101-12.032 7.3048-26.035-13.167-24.578l-6.1445 0.8777c5.6881-31.469 35.972-41.622 10.533-100.07-30.198-24.823-52.574-18.355-71.101 3.5112z"
        />
        <path
            id="path2579"
            sodipodi:nodetypes="cccsccccccccc"
            style="fill-rule:evenodd;fill:#194a70"
            inkscape:connector-curvature="0"
            d="m-2059.3 1629-1.7556-12.289c21.861-3.3374 35.36-13.642 75.49-1.7556 0 0-3.6756 18.507-0.8778 14.045 7.7336-12.335 20.786-3.8612 20.189-0.8778l0.8778 18.434c-4.9852 9.341-14.76 9.1027-26.334 5.2667-17.266 287.04-42.128 574.07-37.745 861.11-15.446 34.064-47.443 35.026-79.001 36.867 14.63-295.52 44.767-552.27 43.889-886.57l-11.411-1.7556c-1.0513-6.6395-5.0183-7.5404 0-26.334l16.678-6.1446z"
        />
        <path
            id="path2581"
            sodipodi:nodetypes="cccccccccccccccccccccccccc"
            style="fill-rule:evenodd;fill:#194a70"
            inkscape:connector-curvature="0"
            d="m-1774 1546.5c1.4526-20.342 98.627-14.416 101.82 2.6334-3.5839 21.706 1.9158 40.008-3.5112 57.056l7.0223 0.8777c-1.7297 101.44-17.185 183.28-35.112 261.58 7.2938 38.737-0.7418 54.481-1.7556 80.756-3.7051 6.8283-9.1756 11.891-17.556 14.045 1.2083 14.274-1.5066 27.566-9.6557 39.5 2.1157 25.488-11.557 23.91-25.456 21.945-8.2386 142.59-20.677 293.57-24.578 427.48-11.314 6.3455-22.576 12.316-31.6 2.6334 1.3356-29.711-1.9437-65.192 7.9001-84.268 16.392-174.7 9.7291-219.81 20.189-335.31-7.6914-3.0093-15.482-5.9441-14.045-15.8-10.093 7.381-25.524-3.054-27.212-8.7779-2.6532-8.3489-3.1356-15.612 3.5112-19.311l17.556 2.6333c-2.5111-13.167-10.478-26.334 0-39.5l-14.045-1.7556c-2.1753-15.257-3.0272-30.074 1.7556-43.012l7.0223-0.8778c-13.791-14.541-3.5561-32.514-2.6333-49.156l9.6556 3.5112c0.9292-82.22-0.3444-164.44 14.045-246.66l7.9001-7.0223c-1.4406-23.25 0.8641-44.628 8.7779-63.201z"
        />
        <path
            id="path2583"
            sodipodi:nodetypes="ccccccccccccccccccc"
            style="fill-rule:evenodd;fill:#194a70"
            inkscape:connector-curvature="0"
            d="m-1519.5 1693.1c15.783-3.9974 32.198-22.388 81.634 6.1446-3.4168 85.136 6.2369 175.72-22.822 250.17-6.9634 34.701-17.793 77.134-18.434 99.19-2.3195 45.437-15.034 49.294-26.334 58.812l-4.3889 12.289c3.7006-5.2836 9.8319-3.275 15.8-1.7556 4.6647 9.2393 4.3991 16.506-2.6334 21.067-3.3435 1.0454-5.411 3.3669-13.167 0-7.2371 54.404-14.849 110.31-17.556 146.59l-7.9001 8.7778c-5.4261-46.372-3.0658-95.34-1.7556-143.96-0.012-9.9423-1.9208-18.936-15.8-21.945-6.4863 0.449-8.7087-2.5132-3.5111-11.411 7.4184 0.052 12.089-1.2704 23.7 0.8778l-1.7556-12.289c-7.4569-7.2069-16.563 0.4253-21.945-25.456 3.9068-52.461 1.2191-118.11 0.8777-179.07 0.4461-45.09-8.9873-69.432 35.989-208.04z"
        />
        <path
            id="path2585"
            sodipodi:nodetypes="cccccsscccccc"
            style="fill-rule:evenodd;fill:#194a70"
            inkscape:connector-curvature="0"
            d="m-1326.3 1729c-0.5638 5.2668-4.0614 93.923-7.9 93.923 1.0465 16.31-2.531 40.711 7.0223 42.134-5.8519 114.79-11.704 213.93-17.556 320.39-6.3798-1.199-5.6642 1.5154-16.678 2.6334-7.3162 0-9.0792 13.638-0.8777 23.7 5.7528 7.0584 45.43 8.854 52.667 0.8778 1.5792-1.7406 0.2516-15.297-4.3889-24.578l-12.289-5.2668c8.4853-103.19 16.971-195.74 25.456-309.86 4.49-3.692 9.1842-6.5671 11.411-19.311 4.7702-35.54 0.9627-76.799-0.8778-116.75-2.768-15.553-22.714-7.0572-35.989-7.9001z"
        />
        <path
            id="path2587"
            sodipodi:nodetypes="ccccsccccccccccccccccccccccccccccccccccccccccccccccc"
            style="fill-rule:evenodd;fill:#194a70"
            inkscape:connector-curvature="0"
            d="m-1513.3 856.53c-25.156 9.058-15.931 83.651 0.8777 81.634 123.18 7.7748 251.31-1.8109 377.45-4.3889 10.807 8.8883 13.409 23.246 47.4 16.678 0 0-0.6897 9.1121-3.5111 7.0223-2.8159-2.0858-11.691-3.6255-12.642-0.77129-2.9603 4.3196-8.4169 7.9261-0.3636 15.392 18.141 3.1157 2.7647 4.6832 20.906-1.4544-15.484 266.82-29.527 532.21-46.523 800.54-8.2077 3.0961-14.311 9.6994-17.556 21.067-3.238 11.86-1.47 21.217-1.7555 31.6 12.067 9.5993 34.306 11.061 31.6 32.478-5.1525 11.187-20.412 16.31-33.356 22.822-4.5309 18.141-5.4969 36.282-1.7556 54.423 8.7792 15.799 33.046 16.11 26.334 47.4-9.8163 7.8425-20.135 13.677-31.6 14.922-8.1038 19.311-2.7624 38.623-1.7556 57.934 7.0223 12.874 26.893 10.759 21.067 38.623 1.5109 10.052-13.922 12.843-22.822 18.434-7.9024 15.507-1.335 36.801-1.7555 55.301 10.656 13.884 36.415 17.434 18.434 50.912-12.094 2.4774-27.193 0.1461-31.6 14.922-4.0818 7.3149 0.6055 14.63 2.6334 21.945 10.665 3.1452 20.577 5.0357 26.334 0 3.5062 15.818 3.7651 43.001 10.534 47.4 3.4131-1.652 8.111-20.005 13.167-43.012 26.13 20.827 26.04-4.6152 24.578-32.478 12.712-17.062 2.9259-38.623 4.3889-57.934-9.9483-19.024-19.896-20.741-29.845-21.945 12.369-8.4051 27.789-13.76 32.478-29.845 9.538-8.7787 4.0963-36.282 6.1445-54.423-9.3994-22.915-22.548-25.209-35.112-30.723 12.371-10.116 32.452-17.662 35.989-30.723 7.5737-11.445 4.44-33.597 6.1445-50.912 0.9445-19.15-17.532-26.348-37.745-32.478 14.654-4.7686 26.349-16.932 37.745-29.845 4.1428-21.661 7.514-43.168 3.5111-63.201-4.533-12.708-12.034-23.72-28.089-29.845 12.923-4.7476 26.128-8.7397 34.234-26.334 1.3984-6.3706 3.1538-12.265-0.257-25.048-2.2291-10.012-10.38 6.9344-15.543 10.126 13.909-258.76 21.074-521.03 49.156-784.74 11.328 12.791 19.984 4.213 29.845 5.2667 7.167-9.0705 7.1379-18.141 6.1445-27.211 6.7297-4.581 13.459-4.6408 20.189-16.678 102.77-1.7779 216.93-7.3548 329.17-12.289 25.082-19.731 38.002-41.645-0.87779-72.856-112.22-1.9914-225.1-4.9633-330.93 2.6334-3.8057-10.236-11.483-10.793-18.434-13.167-39.818 0.24182-81.526-3.2948-116.75 6.1445-5.8053 0.0397-9.971 5.2717-14.045 10.533-127.28 2.0482-250.91 2.2717-381.84 6.1445z"
        />
        <path
            id="path2589"
            sodipodi:nodetypes="cccccccccccccccccccccccccccccccccccccc"
            style="fill-rule:evenodd;fill:#194a70"
            inkscape:connector-curvature="0"
            d="m-523.86 1453.7c32.457-4.9748 60.201 1.0493 85.655 12.414 8.29-72.005 13.778-143.08 28.552-217.24 30.23-3.9147 58.713-14.234 95.586 6.2069l1.2414 9.931c11.409-26.734 91.104-12.262 94.345 4.9655-8.5321 148.28-24.386 294.73-42.207 440.69-10.815 20.168-23.565 60.458-32.276 21.103-12.101 134.46-27.627 268.06-31.034 404.69-4.9722 48.954-7.178 45.347-9.931 52.138-7.29 2.008-13.669 1.2823-18.621-3.7241 6.9209-145.35 15.579-288.97 24.828-432-10.096 1.0755-16.634-3.1874-17.379-16.138l1.2414-16.138c-4.692-58.345-4.5214-116.69 2.4828-175.03-14.017 76.19-21.619 158.79-42.207 228.41-7.8621 14.584-15.724 25.105-23.586 21.104 10.67 38.109-6.293 24.408-12.414 31.034-21.405 125.14-36.389 252.42-50.897 379.86-7.0345-1.4365-14.069 0.5788-21.103 1.2414-2.6636-16.642-4.4572-32.849-2.4828-47.172 11.172-112.55 25.801-221.65 33.517-337.66-29.569-11.66-9.0116-27.363-3.7241-34.759-3.7241-0.6838-7.4483-7.273-11.172-14.896-5.6805-30.151 2.2144-53.514 4.9655-79.448-6.6207 34.345-15.903 58.042-19.862 103.03 7.1987 9.2519 2.9846 13.939-1.2414 18.621-0.0744 12.136-2.9108 23.167-26.069 26.069 4.611 16.923-1.2284 28.145-22.345 31.034-14.734 121.66-26.971 243.31-45.931 364.97-19.331 6.5662-37.63 9.0008-54.621 6.2069-5.2242-25.733-5.3788-54-1.2414-84.414 16.563-90.727 28.334-180.26 53.379-273.1-2.84-9.0675-28.527-4.8075-6.2069-28.552-16.536-11.052-15.157-19.545 17.379-23.586l1.2414-6.2069-11.172-9.931c10.146-119.42 40.49-242.2 63.31-363.72z"
        />
        <path
            id="path2591"
            sodipodi:nodetypes="ccccccccccc"
            style="fill-rule:evenodd;fill:#194a70"
            inkscape:connector-curvature="0"
            d="m-727.45 1504.6c45.578-41.722 82.659-35.299 114.21 2.4828 4.961 194.42-22.701 346.89-49.655 500.28-0.19876 27.757-1.5438 50.928-8.6897 50.897 6.5906 3.1003-7.666 33.482-27.097 23.586 6.6811-2.2409-12.554 293.55-23.799 299.17-18.684-12.172-27.65-36.006-34.759-62.069 9.1034-71.3 18.207-166.34 27.31-249.52-11.83-0.6647-24.22-0.9568-8.6896-19.862-2.5479-0.251-6.4409 2.8609 0-19.862-8.6671-178.57 4.7986-350.83 11.172-525.1z"
        />
      </g
      >
      <path
          id="path2593"
          inkscape:connector-curvature="0"
          sodipodi:nodetypes="cccccccccccccccccccccccccscccccccccccccccccccccccccccccccscccccccccccccccccccscccccccsccccccccccccccscccccccccccscccccccccccssccccsc"
          style="fill-rule:evenodd;fill:#194a70"
          d="m390.98 5842c-35.091 16.082-79.81 30.56-96.828 49.655-43.586 26.01-17.68 66.911-19.862 101.79 272.52 274.63 509.69 591.68 868.97 762.21 183.6 30.918 283.54-5.8955 270.62-134.07-37.276-152.85-117.8-161-178.76-238.34 9.7998-265.66 28.21-531.31 2.4828-796.97 500.97-201.1 992.87-429.38 1484.7-657.93 368.48 234.06 736.48 273.55 1060.1 521.38 43.034-14.097 86.069 5.523 129.1-49.655-108.85-311.22-271.5-256.02-238.34-273.1 13.458-217.55 24.486-436.31 24.828-660.41 62.324-3.7536 108.81-65.578 151.45-141.52 12.396-65.379 7.1598-130.76 0-196.14-79.788-90.579-105.83-65.994-141.52-62.069 18.628-182.76 40.158-364.54 39.724-553.66 17.379 21.432 34.759 29.878 52.138 24.828 64.574-12.397 125.45-27.571 163.86-59.586 12.915-37.626 19.307-77.426 12.414-121.66 32.072 9.9425 56.099-12.293 81.931-27.31 16.48-15.724 12.278-31.448 2.4827-47.172h22.345c9.8985-14.897 18.549-29.793 2.4828-44.69 22.11 0.5933 36.286-6.7486 52.138-12.414-15.969 84.658-10.664 148.04-14.896 220.97-10.748 53.741 47.697 64.118 96.828 32.276 10.304-6.6782 36.214-215.86 24.828-223.45 174.19-11.838 418-116.5 628.14-176.28-14.586 130.24-20.793 268.86-47.172 387.31-16.584 7.0369-32.003 14.084-12.414 54.621 13.86 13.249 31.138 12.829 49.655 7.4483 17.565-0.1523 38.428-33.293 7.4483-52.138 6.7708-132.49 36.016-276.21 54.621-414.62 24.101-18.783 53.331-24.742 81.931-32.276 7.8789-96.53 24.318-191.84 17.379-290.48-13.572-2.1517-22.402-1.1418-42.207-7.4483 1.8542-7.8123 6.8779-14.832 0-24.828-19.733-2.8737 17.88-0.832-74.483-9.9311-6.2801 7.3509-10.286 15.156-4.9655 24.828-118.69-39.3-233.46-55.132-350.07-81.931-85.957 9.2673-94.726 40.147-126.62 64.552-199.34-45.136-399.17-88.292-600.83-124.14-1.4498-7.8963 2.0969-16.625-12.414-22.345 14.971-88.742-52.932 12.57-34.032 6.2952-26.289 12.635-91.635-244.33-105.71-267.75-27.264-83.9-75.409-144.83-125.71-203.39-40.923-13.128-73.25-8.2052-97.622 13.424 36.75 39.068 73.695 74.575 105.84 125.16 12.236 23.351 137.99 307.18 111.48 310.21-250.99 35.171-500.36 74.396-748.04 117.84 2.5316-36.365 12.724-65.069 7.4482-109.24-37.796-9.7514-75.904-20.025-94.345 2.4827 1.7622 24.694 3.1205 48.85 0 67.034-16.85 22.684-31.039 46.033-34.759 72-25.655-3.5635-51.31 1.1955-76.966 7.4483 0.399-8.5825 3.2588-17.78-2.4828-24.828l-49.655 7.4483c8.1579 1.3596-11.764-49.59-22.345-49.655-16.483-0.1015-115.65 17.379-104.28 17.379-4.3736 18.656-10.891 36.884-7.4482 57.104 2.4827 19.862 5.7931 29.793 9.931 29.793-637.75 133.96-1209.6 245.95-1809.9 367.45-5.9654-20-14.339-30.37-27.31-22.345-21.065-169.72-35.999-338.35 7.4483-496.55 13.742-38.724 26.666-79.082 47.172-104.28-37.19-45.314-71.652-99.422-129.1-79.448-19.512 106.04-49.714 244.33-52.289 303.77-6.8144 114.97-11.02 229.04 32.426 398.85h-14.896c4.1571 44.613 11.171 77.799 22.345 94.345-17.684-9.1907-28.77 1.4133-42.207 4.9655 5.1411 19.697-30.092-16.572-64.552 0-4.9409 5.2939-0.1687 34.23 19.862 29.793-3.1736 28.692 16.233 44.17 37.241 24.828 3.9552 25.829 53.27 25.849 57.104 7.4481-1.8331 16.13-6.4006 33.041 7.4482 44.69-124.49 31.883-257.94 60.777-369.93 96.828-0.2791 1.3953-16.727 4.188-24.828-2.4828-7.9021-6.5074-233.38 62.069-233.38 62.069-11.238 123.21-4.5095 241.29 0 360 123.08 72.688 242.7 155.77 369.93 216 3.6891 294.55 7.705 589.75 4.9655 871.45-51.745 19.034-100.95 38.069-126.62 57.103-32.956 35.645-66.969 64.946-96.828 119.17-21.962 86.493 0.2436 232.62 4.9655 235.86 0 12.285 95.107 85.569 114.21 86.897 25.782 1.7918 117.4-34.047 114.21-37.241 1.0127 156.8 13.66 327.56 0 466.76zm345.11-1594c0 34.759 4.9655 543.72 4.9655 543.72l141.52-52.138-2.4827-409.66-144-81.931zm-2.4828 985.66c4.2785 25.655 2.5625 51.31 2.4828 76.966 32.125-37.178 79.111-57.37 144-57.103l-4.9656-64.552c-46.116 10.67-90.985 16.354-141.52 44.69zm2.4828 533.79c5.5013 15.903 9.9787 234.22 7.4482 233.38 11.924-5.9619 138.03 130.85 131.59 119.17-7.1973-13.042 2.4828-392.28 2.4828-392.28-41.158 19.256-91.193 29.634-141.52 39.724zm657.93-1673.4c43.957 27.623 23.909 304.94 2.4827 265.66-60.275 43.585-99.104 44.277-141.52 52.138 4.4204 72.847 2.3246 126.15 2.4828 186.21l1638.6-598.34c-1.6292-123.34 4.8043-254.74 12.414-387.31-504.83 162.44-1009.7 331.95-1514.5 481.66zm-124.14 931.03c-2.4828 21.517-4.9655 43.035-7.4483 64.552-8.0617-4.0308 1628.4-660.56 1626.2-672.83-2.2216-12.463-4.9656-47.172-4.9656-47.172-537.93 218.48-1054.5 436.97-1613.8 655.45zm1951.4-1514.5-22.345 372.41c64.172-25.976 96.883-10.005 119.17 19.862l47.172 39.724c8.6793 101.73 2.6198 134.8-22.345 173.79-39.215 80.939-31.296 71.941-52.138 104.28l-131.59 49.655c8.0156-2.9463 32.177 17.078 29.793 29.793 52.982-1.7325 285.52-126.26 285.52-121.66 0 4.7862-29.06-9.2777-29.793-37.241-0.3795-14.482 37.221-719.12 42.207-722.48 13.831-9.3292-268.28 86.62-265.66 91.862zm-54.621 1199.2c-4.0179 62.537-5.629 117.85-4.9655 166.34 84.074 50.101 163.83 74.295 243.31 96.828-3.6406-14.563 29.451-391.97 22.345-379.86-9.637 16.415-253.53 137.71-260.69 116.69z"
      />
    </g
    >
    <g
        id="g5606"
        style="fill:#194a70"
        transform="matrix(.47866 0 0 .47866 -1344.1 578.84)"
      >
      <path
          id="path5003"
          sodipodi:nodetypes="cccccccccccccccccccccccccccccccccccccccccccccccccccccccccccccccccc"
          style="fill-rule:evenodd;fill:#194a70"
          inkscape:connector-curvature="0"
          d="m2386.6 1245.5c-11.218-46.704-44.332-52.192-101.61-12.193-24.998-94.766-81.488-20.264-126-10.161-21.83-32.923-38.412-70.856-117.87-48.773-36.99-15.102-74.734-32.319-85.352 26.419l-24.386 10.161c0.3641-8.8885 14.415-9.9558-2.0322-28.451 8.8684-34.973 14.414-66.926-6.0966-75.191 16.971-16.93 8.6249-37.476 8.1288-56.902 17.824-29.012 3.7318-50.044-10.161-71.127 17.03-17.612 15.311-35.225 8.1288-52.837 16.675-15.486 34.668-30.469-4.0644-67.063 5.4744-11.516 7.9737-23.032 0-34.547 45.484-16.578 97.891-10.378 146.32-16.258 3.071-10.229-0.5479-25.475 12.193-28.451 3.3748-5.4436 6.0389-12.308 4.0644-28.451-212.56-112.36-429.24-208.23-644.21-310.93-95.036 37.138-184.3 64.657-286.54 113.8-0.484-81.53 1.3919-161.88-4.0644-245.9-31.869-12.348-60.026-6.1374-89.417-6.0966-5.4192 6.1866-10.838 9.2718-16.258 20.322 5.9412 114.38 2.7096 182.9 4.0644 274.35-107.68 34.93-181.87 65.077-272.31 97.546-6.6545 13.458 0.6426 16.453 4.0644 22.354-0.72921-11.816-16.542 37.77-28.451 10.161l-28.451 81.288c-1.5947 11.516-1.0949 23.032 0 34.547 7.4514 6.774 13.548 8.1288 18.29 4.0644 3.8793-5.6969 5.5992-14.633 4.0644-28.451 6.15-6.0966 18.914-12.193 38.612-18.29l4.0644 14.225 18.29 2.0322c-6.3235-2.1078-6.1755 31.293 2.0322 48.773-6.7002 17.617-16.708 44.089-2.0322 44.708-4.3139 14.582-7.0154 29.486 2.0322 46.741-13.927 14.225-4.8765 28.451-4.0644 42.676-8.3803 9.7804-1.4489 22.113 6.0966 34.547 5.2203 16.955-0.8172 25.467-6.0966 34.547-10.246 8.7722-2.1901 24.865 0 38.612-4.0059 8.4967-8.5499 16.724-2.0322 30.483 7.5149 14.903 5.1671 29.806 2.0322 44.708-9.2264 16.444-3.8255 35.814 0 54.869-6.5386 14.343-13.365 28.542-4.0644 50.805-15.36 12.871-9.8982 25.741-4.0644 38.612-51.181-87.552-123.77-38.105-186.96-48.773-91.861-15.885-99.455 30.515-134.13 56.902-104.3-61.703-126.17 10.561-188.99 16.258-209.02-23.274-132.41 134.23-144.29 235.74-81.889-27.274-127.2-15.153-103.64 71.127-93.004 14.137-17.195 88.713 107.71 180.87-46.456 59.046-9.2637 108.42 408.47 113.8 191.57 40.31 186.02 104.68 584.02 58.104 174.7 31.291 345.69 59.234 533.69-39.814 125.31 33.78 230.31 45.519 330.96-66.535 141.3-23.908 244.76 10.651 215.7-167.17 123.54 19.852 130.89-60.543 117.87-158.51 42.124-44.515 123.82-78.98 4.0644-164.61 89.264-27.486 79.808-92.78 42.676-168.67zm-1893.9 456.1c-18.929 61.892 89.338 91.5 140.1 131.95 186.91 50.319 428.86 106.88 751.79 68.253 108.3-31.843 219.69-14.277 323.12-123.96 40.211-151.95-117.09-142.94-215.29-161.79-175.76-3.0707-116.61-87.853-530.4-8.1288-105.83-8.7953-282.89 5.6037-394.13 45.55-26.253 19.844-68.152-34.152-75.191 48.135z"
      />
      <g
          id="g5537"
          style="fill:#194a70"
          transform="matrix(1.167 -.040344 .032640 .94414 -570.94 -69.171)"
        >
        <path
            id="path5007"
            style="fill-rule:evenodd;fill:#194a70"
            sodipodi:nodetypes="cssccsssssss"
            inkscape:connector-curvature="0"
            d="m1016.1 1905.2c-27.767-1.9933-66.069 68.684-38.612 101.61 60.283 72.291 114.26 47.165 166.64 69.095 92.332 38.656 107.91 34.869 160.54 30.483 22.527-3.8956 10.896-32.235 10.161-20.322-23.526 3.2255-34.69 11.516-83.32 2.0322-12.737-2.4839-15.085 0.7761-52.837-28.451-11.599-8.9801-7.363 20.084-69.095-8.1288-16.27-7.4359-27.678-0.1092-54.869-24.386-9.8461-8.7908-15.346 16.229-60.966-22.354-18.527-15.669-13.873-35.397-12.193-54.869 0.92737-10.747 49.76-43.616 34.547-44.708z"
        />
        <path
            id="path5009"
            style="fill-rule:evenodd;fill:#194a70"
            sodipodi:nodetypes="csssssssssssss"
            inkscape:connector-curvature="0"
            d="m1367.7 1874.7c-6.1328-64.199 330.45 11.162 341.41 24.386 59.68 72.043 111.07 79.825 115.84 146.32 3.9231 54.784-151.38 46.62-219.48 54.869-43.454 5.2643-167.04-4.0644-121.93-4.0644h2.0322c49.997 0 75.163 2.3546 107.71-2.0322 31.789-4.285 38.748-3.2788 98.562-16.258 30.689-6.6592 75.013 26.221 100.59-30.483 8.7875-19.479 25.945-50.539-27.435-83.32-19.495-11.972-44.439-62.06-119.9-71.127-39.26-4.7175-111.03-26.115-117.87-27.435-21.472-4.1465-85.888-3.4081-95.513-2.0322-12.668 1.8109-62.261 29.529-64.014 11.177z"
        />
        <path
            id="path5011"
            style="fill-rule:evenodd;fill:#194a70"
            sodipodi:nodetypes="csccsssss"
            inkscape:connector-curvature="0"
            d="m1233.5 1945.8c-5.1229-6.7981-28.384 30.812 0 62.998 40.929 46.41 91.593 51.53 136.16 65.03 28.474-6.9822 49.453 7.4331 76.208-9.1449-25.762-7.3523-36.931 3.4837-57.918 1.0161-22.691-2.668-25.368-0.9519-73.159-22.354-18.262-8.1783-36.145-4.6621-58.934-32.515l-18.29-22.354c-6.9786-8.5294 1.9774-34.659-4.0644-42.676z"
        />
      </g
      >
      <path
          id="path5013"
          d="m1086.2 328.12c1.1805 14.849 4.7545 29.698 3.3036 44.548 49.587-3.7238 41.759 0.8625 57.262 2.072l2.2023-46.62c-25.568 6.5559-42.465 0.87411-62.768 0z"
          sodipodi:nodetypes="ccccc"
          style="fill-rule:evenodd;fill:#194a70"
          inkscape:connector-curvature="0"
      />
      <path
          id="path5017"
          d="m1007 61.732c16.106 8.1624-16.305-23.943-5.5185-37.257 6.5446-8.0786 17.019-8.6637 32.192 1.3984 13.985 9.2745 14.589 19.814 13.526 29.82-2.6633 25.069-27.016 29.846-29.95 32.194-23.71 18.978-46.592 40.092-42.444 53.799 20.962 69.274 80.055 49.969 86.747 49.831 106.19-2.1901 11.154 53.017 34.275 102.92 20.98 45.279 51.208 32.154 10.339-14.079-7.1817-8.1245 43.846-119.42-2.2122-108.04-82.583 20.401-159.96-21.822-53.624-91.816 13.481-8.8741 16.756-62.995-6.2753-72.725-49.473-20.902-88.345 27.964-37.054 53.958z"
          sodipodi:nodetypes="cssssssssssss"
          style="fill-rule:evenodd;fill:#194a70"
          inkscape:connector-curvature="0"
      />
      <path
          id="path5019"
          d="m1111.9 305.59c-9.0855 1.449-47.419-40.404-26.474-93.767 10.719-27.31 25.339-34.246 38.933-101.09 4.0764-20.045-22.045-57.307-56.063-109.88-2.8864-4.4609 64.091 10.103 73.194 108.42 3.3548 36.234-36.614 80.787-42.048 96.697-14.663 42.938 42.057 94.907 12.459 99.628z"
          sodipodi:nodetypes="cssssss"
          style="fill-rule:evenodd;fill:#194a70"
          inkscape:connector-curvature="0"
      />
      <path
          id="path5023"
          d="m1205.7 43.838c4.5642 16.667 7.6165-27.517 25.33-29.106 10.748-0.96396 18.316 5.8741 20.764 23.186 2.2563 15.956-5.5588 23.529-14.09 29.588-21.373 15.18-41.634 1.6015-45.459 1.1691-30.908-3.4933-62.92-4.9645-70.802 7.207-39.832 61.51 15.353 89.222 20.004 93.751 73.806 71.867-33.804 43.698-57.051 93.549-21.094 45.232 9.6715 57.201 18.007-2.4166 1.4648-10.477 122.97-50.789 82.818-74.88-71.988-43.194-91.565-125.3 35.25-99.376 16.078 3.2872 60.539-31.194 52.497-53.709-17.275-48.364-81.802-42.039-67.266 11.038z"
          sodipodi:nodetypes="cssssssssssss"
          style="fill-rule:evenodd;fill:#194a70"
          inkscape:connector-curvature="0"
      />
      <path
          id="path5535"
          d="m1117.2 314.38c20.248 32.12-52.63-8.8095-66.801-73.912-6.2084-28.52 7.2011-41.172-11.117-107.01-5.493-19.744-46.12-42.797-100.88-76.475-4.6463-2.8575 62.472-16.838 115.67 68.215 19.607 31.346 3.9177 87.746 6.2939 104.31 6.4127 44.694 41.518 60.585 56.832 84.878z"
          sodipodi:nodetypes="cssssss"
          style="fill-rule:evenodd;fill:#194a70"
          inkscape:connector-curvature="0"
      />
      <g
          id="g5548"
          style="fill:#194a70"
          transform="matrix(.99055 -.13718 .13718 .99055 208.43 -54.361)"
        >
        <path
            id="path5542"
            style="fill-rule:evenodd;fill:#194a70"
            sodipodi:nodetypes="cssss"
            inkscape:connector-curvature="0"
            d="m813.33 1916.2c-17.632 0.8836-27.621 23.631-22.992 38.799 12.661 41.484 35.774 38.49 56.042 38.798 38.064 0.5804 46.879-33.596 33.051-48.857-35.454-39.129-47.377-29.678-66.101-28.74z"
        />
        <path
            id="path5544"
            style="fill-rule:evenodd;fill:#194a70"
            sodipodi:nodetypes="cssss"
            inkscape:connector-curvature="0"
            d="m898.17 1977.3c15.511 6.4504 35.079-5.6579 38.469-18.262 9.2712-34.475-11.952-41.629-29.141-49.982-32.28-15.688-56.382 4.9889-51.948 21.352 11.369 41.954 26.148 40.043 42.62 46.893z"
        />
        <path
            id="path5546"
            style="fill-rule:evenodd;fill:#194a70"
            sodipodi:nodetypes="cssss"
            inkscape:connector-curvature="0"
            d="m869.21 1983.4c-10.14 11.227-1.6572 30.425 10.854 36.363 34.218 16.243 46.336 0.4664 58.839-11.675 23.482-22.801 6.9772-47.88-11.179-48.282-46.551-1.0297-47.746 11.671-58.514 23.593z"
        />
      </g
      >
    </g
    >
    <path
        id="path3387"
        style="fill-rule:evenodd;fill:#194a70"
        d="m2209.8 1258.1c-3.5093 2.2591-6.0139 3.8507-8.237 5.0823-34.956 13.981-45.691 39.872-50.844 68.507-0.097 74.823 59.781 87.403 95.477 82.559 36.004-9.0465 51.185-31.299 60.162-57.487 3.6818-12.376 2.0807-22.066 2.3765-32.721 1.7721-5.4181 0.4368-6.107-0.2145-7.8371 7.4322-3.1696 13.965-7.8895 20.239-13.055 11.266-12.64 9.4659-20.978 8.4546-29.194-4.1351-33.592-84.239-65.214-97.17-60.816-6.4808 2.2044-14.977 8.1362-20.481 17.327-3.2667 8.1861-3.5136 16.729-4.6433 25.168-3.1014-0.094-4.1438 1.1642-5.1191 2.4669zm30.328-24.15c-1.2262 1.6042-2.8811 2.9268-3.3179 5.0497-2.3752 5.3086-2.6724 9.4114-3.0988 13.589 5.4274 2.1067 8.2509 4.1069 10.69 6.0913 28.711 6.0011 40.052 19.987 51.366 33.984 2.1561 1.5775 4.4407 3.7759 6.7437 6.0635 2.3616-1.1321 5.1155-2.5378 9.7495-5.2546 2.2889-2.8557 4.4498-5.2297 7.5479-11.132-1.8249-7.5625-3.965-15.2-23.154-26.875-8.4374-5.1814-15.546-10.206-27.188-15.766-9.8221-3.0143-19.83-10.802-29.338-5.7508z"
        inkscape:transform-center-x="-36.397859"
        inkscape:transform-center-y="-4.7326217"
        inkscape:connector-curvature="0"
    />
    <path
        id="path2661"
        style="fill:#194a70"
        sodipodi:nodetypes="cccccccccccc"
        inkscape:connector-curvature="0"
        d="m1818.1 1252.4c40.776 18.181 81.362 36.501 124.16 53.206 20.41-18.568 41.566-34.955 76.095-12.226 32.86 27.623 26.522 52.026 20.154 76.428-15.574 28.129-36.201 31.382-57.412 31.758-40.308 0.2225-52.266-38.292-51.585-56.664-2.1517-3.4583-2.6226-6.7345-1.8265-9.8734-40.698-16.629-81.516-34.329-122.39-52.553-12.266 22.305-37.15 27.918-44.568 24.988-46.587-5.7431-51.646-33.288-51.399-57.17 9.6685-43.989 39.95-62.324 69.109-51.027 36.94 11.511 35.741 37.298 39.659 53.134z"
    />
    <g
        id="g3622"
        style="fill:#194a70"
        inkscape:label="Ebene 1"
        transform="matrix(.68409 .024415 -.024415 .68409 642.75 747.08)"
      >
      <path
          id="path3762"
          sodipodi:nodetypes="cccccccccccccccccccccccccccccccccccccccccccccccccccccscccccccccccc"
          style="fill:#194a70"
          inkscape:connector-curvature="0"
          d="m874.57 111.79c11.428 10.476 11.429 19.048 0 25.714-17.959 8.2983-31.358 7.4774-45.714 8.5714 0.6325 49.189 4.1806 118.79 1.4286 144.29 9.4942 20.223 3.93 32.917-1.4286 45.714 2.4427 107.87 2.7945 207.37 1.4286 300-0.1208 14.905 14.173 24.045-2.8571 45.714 11.259 31.344-0.5252 83.166-2.8572 107.71-269.68 122.99-574.15 99.099-877.14 81.428 4.2857 67.096 8.5714 80.523 12.857 129.43-27.552 5.3404-56.059 10.92-98.571 20l-12.857-10-17.429-142.29c-21.905-4.7618-49.905-15.238-68-31.428-39.692 92.55-62.919 150.63-106 246.57-38.352 13.04-71.699 24.83-124.29 41.429l-21.429-4.2857c18.405-42.214 30.441-78.06 55.714-127.14-22.857-7.1869-45.714-22.618-68.571-37.143l-18.571 44.286c-30.149 10.952-72.262 21.905-121.43 32.857l-5.7143-5.7142c14.562-41.905 28.77-83.81 54.286-125.71 2.0106-5.8352-5.2608-12.996 8.5714-17.143 23.237-47.215 39.769-99.459 70-141.43-1.3774-10.966-2.2505-21.125 5.7143-17.143 22.675-48.424 43.811-97.618 70-144.29-8.2533-14.126-0.8106-14.519 5.7143-15.714 11.623-32.274 26.638-54.371 40-81.429l-4.2857-5.7143c34.378-11.151 70.949-15.723 107.14-21.429l8.5714 5.7143c-4.0328-41.905 0.33295-83.81 1.4286-125.71-6.0552-10.042-8.9391-30.045-2.8571-47.143-2.9367-45.218-7.2046-90.104-2.8571-137.14h-24.286l-22.857-11.429c-1.1795-5.5629-2.9104-10.758 1.4286-20 30.813-1.4981 55.137-6.2412 92.857-4.2857 8.4086 1.8003 20.942 2.2257 24.286 5.7143v-22.857c17.547-40.124 60.649-67.147 95.714-98.571l11.429 7.1429c-4.2864 64.749-8.9121 80.501-5.8158 101.78 32.909-11.387 230.36-44.604 536.48-30.762-0.24-25.279-3.88-25.723-0.59-36.839 8.92-11.007 16.17-28.683 28.57-25.714 53.77-13.177 102.63-6.696 152.86-5.714 15.874 6.6667 19.204 13.333 20 20-0.9524 44.383-5.9453 27.383-6.8977 51.328 100.17 5.6512 175.55 30.334 256.9 28.672zm-1294.3 674.29-42.857 91.429s71.429 37.143 72.857 31.428c1.4286-5.7143 28.571-64.286 28.571-64.286l-2.84-35.72-55.714-22.857zm44.286-92.857-14.286 24.286 14.286 7.1428v-31.429zm98.571-210c-7.1429 7.619-11.429 17.143-12.857 28.571l4.2857 55.714 14.286 5.7143c-2.9944-31.09-4.6156-60.806-5.7143-90z"
      />
    </g
    >
    <g
        id="g2504"
        style="fill:#194a70"
        transform="matrix(1.6265 0 0 1.6265 -43.276 -399.67)"
      >
      <path
          id="path3941"
          d="m502.58 0c102.72 18.46 202.29 29.021 303.09 42.665 5.1387 4.2474 4.2287 6.7666 6.0376 10.063-3.9069 1.002-6.1001 4.86-8.4526 8.4526 1.0266 4.2466 0.004 6.4439 0 9.6601-12.998 6.7883-29.374 17.799-44.275 26.968 2.519 2.3285 0.66587 3.7825 0.80501 5.6351-1.049 2.3782-2.8985 1.5544-4.4276 2.0125-3.0904 5.8511-0.80501 20.662-1.2075 30.993l4.025 0.805c0.0348 0.91143 0.81599 2.5963-0.80501 4.025-7.0351 4.1387-13.757 8.7479-19.723 14.49l-0.4025 2.415c7.0696 1.5159 14.468 7.6551 15.698 11.673 2.9051 4.8184 0.28087 8.2545-0.80501 12.075-1.2782 2.6598-7.1951 4.1759-13.283 5.2326-5.9693 12.579-5.6351 28.712-8.8551 42.665 5.1822 8.5616 2.586 12.228 0.80501 17.308-2.212 1.6282-1.8254 3.9026-2.0125 6.0376-5.854 2.4719-11.171 1.1845-16.503 0 0.16457-2.4398-0.11004-5.0302 0-6.4401-4.4012-2.8319-4.8638-9.4827 0.40251-18.113-1.3403-13.954 0.0288-28.449-4.025-41.86-1.9112-3.0304-7.82-2.1262-10.465-6.4401-2.6192-2.1842-2.3163-5.2033-1.2075-8.4526-83.542 57.402-179.62 121.07-270.89 182.33 5.2094 0.0116 6.6705 1.8973 7.6476 4.025-4.3653 9.4229-16.888 14.767-25.358 22.138v2.8175c9.2464 2.9853 19.391 3.2753 24.553 18.515-0.93653 15.433-11.538 16.369-17.308 24.553-2.9281 15.966-6.061 35.353-6.8426 51.319 6.451 10.883-0.0316 22.78-2.6163 22.339-0.35018 1.394-1.7722 4.5337-2.6163 10.666-3.644 2.3828-9.13 2.0027-14.893 1.2075-1.504-3.2481-2.185-8.491-2.6163-10.666-10.435-5.2824-8.8467-16.255-5.4338-23.345-3.0196-15.58-2.3241-32.089-9.2576-46.691-24.789-17.782-15.985-22.967-16.905-31.798 4.7194-5.6392 8.8638-11.997 17.71-12.478l0.40251-7.2451c-7.6229-3.0119-15.094-5.5685-23.748-11.673-0.52982-4.0216 4.6158-5.2055 8.0501-7.2451-62.51-23.9-125.04-45.08-187.56-65.2l-5.2326 5.0313c16.042 2.907 21.762 7.0763 23.713 16.767-2.5376 15.861-13.232 10.698-13.248 16.037-0.67084 17.365-1.3417 33.207-2.0125 48.301 7.9933 10.299 3.5707 14.291 0.805 16.905 0 0 0.72931 7.8365 1.2075 10.063 0.67277 3.1319-16.294 4.647-20.694 1.7136-0.0853-2.9817 0.38699-7.129 0.16673-9.3612-8.5447-5.4086-5.8514-9.7433-5.0944-15.864-0.90811-14.563-7.2605-33.565-13.018-49.543-9.2529-5.4875-16.965-9.1007-18.314-18.716 1.8901-2.9979-2.8687-5.1351 18.716-15.094l-0.00001-2.6163c-9.1649-4.3238-19.565-5.5593-27.37-13.283-1.0843-1.61 2.3167-3.22 4.83-4.83-0.72482-12.424 1.1308-23.742-4.4276-38.238-2.2809 0.48944-4.5617-1.9502-6.8426-4.4276-0.23476-2.5492-2.7547-5.0984 0.4025-7.6476-18.5-12.099-42.934-15.295-64.401-22.943-0.06012-4.2633-1.2892-7.9422 0-12.88-4.6959-2.6905-9.3918-5.1159-14.088-9.2576-13.439-2.57 160.84-67.82 478.17-185.54z"
          sodipodi:nodetypes="cccccccccccccccccccccccccccccccccccccccccccccccccscccccccccccccccc"
          style="fill:#194a70"
          inkscape:connector-curvature="0"
      />
      <path
          id="path3943"
          sodipodi:nodetypes="ccccc"
          d="m18.565 106.18c-8.381 3.0798-7.3812 4.6902-6.2958 11.703l488.4 118.8c0.86355-1.1124 1.29-2.3702 0.71854-3.9604l-482.82-126.54z"
          inkscape:transform-center-x="156.95667"
          inkscape:transform-center-y="-140.80875"
          inkscape:connector-curvature="0"
          style="fill:#194a70"
      />
      <path
          id="path3945"
          d="m5.9734 137.52c-7.7578 4.4208-6.5058 5.8441-4.2779 12.581l501.3 36.57c0.66811-1.2397 0.88115-2.5507 0.055-4.0247l-497.09-45.13z"
          sodipodi:nodetypes="ccccc"
          style="fill:#194a70"
          inkscape:connector-curvature="0"
      />
    </g
    >
    <g
        id="g2451"
        style="fill:#194a70"
        inkscape:label="Ebene 1"
        transform="matrix(.32593 0 0 .32593 1751.2 830.51)"
      >
      <path
          id="path7254"
          d="m407.14-148.21c198.52 25.594 397.94 44.468 592.86 97.143v5.7143c15.188 9.699 36.857 9.0292 34.286 47.143-4.9154 34.447-4.0327 71.793-15.714 102.86 38.386 9.6283 76.762 19.239 111.43 21.429 0.9458 11.282 11.896 23.333-10 32.857h-14.286l8.5714 1.4286c4.6137 15.238-0.3449 30.476-2.8571 45.714-2.0675 4.9749-7.9614 11.225-21.429 20h-10c-21.004 10.708-41.486 33.429-64.286 2.8571l-10-1.4286c-11.905 2.7238-23.81-4.6681-35.714-7.1429-9.5886 1.4027-6.2931 7.959-7.1429 12.857 13.975-0.0968 25.12-3.9668 44.286 2.8571-1.3135 4.5813-0.1385 10.407-8.5715 11.429l-8.56-1.43-2.8571 5.7143c8.3303 82.975 0.6227 157.93-1.4286 235.71-4.2237 24.734-25.563 35.205-40 51.429-11.32 8.3179-16.685 19.342-7.1429 37.143 5.8031 19.33 8.9429 37.329 7.1429 52.857-37.638 27.206-65.034 20.273-91.429 10 4.5758-10.509-45.714 49.524-68.571 74.286-1.2124 5.8224-3.7618 10.976-1.4286 18.571 3.3819-0.19413 7.0203-1.4145 8.5714 5.7143v10l2.8572 10c6.4628 16.259 1.8173 29.74 1.4286 44.286-24.305 39.268-53.597 13.721-81.429 7.1429-11.389 12.13-30.202 41.583-31.429 30-3.3887 24.121-30.937 32.867-54.286 44.286-15.294 3.1661-30.956 5.2286-50-2.8571-200.47-54.76-400.94-109.52-601.42-164.28-8.2628-1.3757-15.057-11.565-21.429-24.286-3.6172-22.097-8.5093-42.919-8.5714-68.571 58.134-80.05 127.16-125.46 145.72-331.43 4.8303-74.072 16.08-144.71 101.43-175.71-0.5167-18.759-3.9015-38.562 15.714-50 2.4506-6.5738 12.232-3.3727 20-2.8571l-2.8571-17.143-14.286-1.4286c-34.582 60.092-54.319 41.508-70 1.4286-10.881 2.2527-23.878 8.313-25.714-5.7143-24.964 6.3963-52.19 11.096-70 22.857 12.043 44.9 6.994 72.708-11.429 87.143-4.5498 3.1772-9.2887 4.5056-15.714-3.5714-11.452 15.38 21.326-33.52 1.417-92.142 26.411-11.117 52.737-22.444 82.853-24.286 8.2137 4.2782 9.753-17.639 18.571-42.857 9.2128-0.0096 19.67 0.25704 21.429 11.429 16.051-14.15 24.101-40.967 61.429-21.429 5.5956-0.15922 7.8556 4.129 18.571-2.8571-4.8889-8.1852 4.9336-15.144 22.857-21.429-3.6339 3.5123-12.488-22.043-10-30-0.75034-11.597 4.5506-31.31 4.2857-25.714 6.4316-4.7741 11.157-2.7218 15.714 0 19.253 17.143 18.095 34.286 27.143 51.429 12.118 0.37726 25.308 5.0416 35.714-1.4286 18.438-24.428 8.2266-79.295 55.714-72.857 9.122-11.131 18.976-19.336 30-22.857z"
          sodipodi:nodetypes="ccccccccccccccccccccccccccccccccccccccccccccccccccccccccccccccc"
          style="fill-rule:evenodd;fill:#194a70"
          inkscape:connector-curvature="0"
      />
    </g
    >
    <g
        id="g3406"
        style="fill:#194a70"
        inkscape:label="Ebene 1"
        transform="matrix(.87990 0 0 .87990 1492 -259.21)"
      >
      <path
          id="path2895"
          sodipodi:nodetypes="cccccccccccccccccccccccccccccccccccccccccccccccccccccccccccccccccccccccccccccccccccccccccccccccccccccccccccccccccccccccccccccccccccccccccccccc"
          style="fill-rule:evenodd;fill:#194a70"
          inkscape:connector-curvature="0"
          d="m899.96-550.58c64.337 15.85 130.3 33.33 200.01 54.548-62.257 64.721-130.58 117.31-197.99 171.73-19.372 26.782 136.62 58.789 116.17 91.924-31.782 50.584-70.604 87.085-113.14 116.17l57.579 114.15c54.515 1.9288 80.961 7.8676 97.985 15.152 17.451 9.0124 10.621 14.381 2.0203 18.183l1.0102 70.711c9.4281 7.4078 12.122 13.469 8.0812 18.183-7.4482 52.407-9.9649 119.61-12.122 187.89l7.0711 1.0102c3.3643 22.891-1.608 29.109-3.0305 42.426l-7.071 4.0406c-28.645 54.649-42.895 48.122-61.619 60.609 5.7198 27.75-17.2 22.769-28.284 31.315-15.612 8.8312-15.3 15.008-15.152 21.213 12.769-4.1659 14.15-0.1978 8.0812 9.0914 1.6557 17.776-4.7496 19.946-8.0812 25.254 5.0599 8.7546 1.5827 17.509-4.0406 26.264 2.4329 12.871-4.9106 15.966-10.102 21.213 7.5185 7.4455 1.3778 17.168-7.0711 27.274 0.9441 9.0583-5.0223 14.661-9.0914 21.213-2.7884 9.0283 6.0019 25.776-11.112 25.254-1.2297 8.9401 3.3415 15.946-5.0508 27.274-7.4945 50.497-25.4 59.35-40.406 79.802-23.593 8.5923-16.15 34.427-17.173 55.558 12.326 7.7445 8.4828 15.489 8.0812 23.234 27.02 21.705 9.7128 29.771 4.0406 41.416-15.489 12.449-30.978 4.6256-46.467 5.0508-11.181-5.7242-11.408-11.448-12.122-17.173-19.997 1.7207-14.455-16.99-8.0812-36.366 5.7306-31.988-0.43825-63.976-5.0508-95.964-4.6142-14.643-5.0153-28.082 9.0914-37.376-51.654-66.68-24.536-84.489-20.203-115.66-5.2987-11.339 1.3214-23.048 0.50508-34.85 3.7039 7.9101 2.8621 18.833 6.566 24.244 2.9875-8.8496 9.1527-16.905 2.0203-28.284-23.907 9.0727-47.814 13.026-71.721 27.274l-134.35-46.467-17.173 51.518c3.9645 4.7901 10.977 6.5325 10.102 16.162 3.7748 6.0846 3.2958 10.751-1.0102 14.142-4.8939 9.474-8.9041 15.414-11.112 14.142l-3.0305 29.294c0.32806 8.7677 5.4832 10.295 11.112 11.112 4.6054 6.8429 13.311 9.5859 13.132 21.213l30.305 17.173-7.0711 6.0609v26.264l12.122 6.0609-72.731 43.436-67.68-31.315c-3.8464 8.133-6.5731 18.505-18.183 11.112-16.567-3.9977-11.92-11.852 1.0102-21.213l-19.193-8.0812c-16.918 4.0768-33.801 8.0675-45.457-1.0102-7.6472-9.5079 3.3656-12.796 11.112-17.173l-11.112-4.0406 1.0102-9.0914 12.122-3.0304 2.0203-29.294-8.0812-1.0102 1.0102-8.0812c21.715-1.656 21.361-6.9903 28.284-11.112-3.138-16.855 13.229-18.105 22.223-25.254l-1.0102-32.325-13.132-9.0914c-4.841-7.5237-6.8859-14.348-1.0102-19.193-0.0609-10.223 4.8777-10.448 10.102-10.102l2.0203-70.711-166.68-60.609c-0.44981 9.4075 7.4157 0.52143-5.0508 36.365-4.3773 6.0049-8.7547 3.6804-13.132-1.0102l10.102 52.528-1.0102 66.67c8.8964 7.0357 20.363 13.429-2.0203 28.284-10.327 8.0758-22.339 6.0423-35.355-2.0203-19.156 1.326-13.41-11.578-15.152-20.203l9.0914-11.112 7.0711-15.152c-3.2051-71.322-38.515-69.261-58.589-102.03-9.0475-4.8995-18.951-8.3724-20.203-26.264-4.0532-7.0397-10.92-7.0441-10.102-26.264-9.1821-19.497-7.3373-22.454-6.0609-26.264-34.62-14.16-66.973-27.51-122.31-49.49v-33.335l3.0305-1.0102 1.0102-11.112h4.0406l-1.0102-24.244c33.693-19.176 89.225-34.949 83.843-74.751 1.7024-22.761-0.0509-39.475-9.0914-43.437-1.34-13.795 0.15-23.338-6.057-44.441 63.397-24.27 145.98-19.773 219.21-29.295l3.0305-8.0812-7.0711 1.0102-4.0406-8.0812 19.193-13.132c7.0076-8.2082 10.49-23.468 12.122-42.426h17.173c9.1487-12.545 15.929-26.143 48.487-28.284 164.99-161.96 321.32-312.38 494.97-485.88zm-14.142 443.46 50.508 100.01c-68.017-7.2375-136.03-6.7258-204.05-6.0609 51.665-29.378 104.37-54.597 153.54-93.944zm16.162 608.11 30.305-17.173c-17.127 14.816-23.689 29.631-30.305 44.447l-4.0406-6.0609 7.0711-8.0813c3.3869-1.0795 4.2845-4.026-3.0305-13.132zm-426.28-38.39c0 4.0406 3.0305 60.609 3.0305 60.609 4.3773 0.729 8.7546-3.5026 13.132 7.0711l-2.0203 16.162c-2.0506 6.704-4.7568 12.752-12.122 14.142l-1.0102 28.284 10.102 14.142 9.0914 6.0609 2.0203 7.071 1.0102-148.49-23.234-5.0507zm29.294 9.0913 1.0102 162.63 12.122 3.0305 13.132-13.132 2.0203-33.335c-5.0508-1.8343-10.102-3.9894-15.152-11.112-4.2237-5.0508-1.8564-10.102-1.0102-15.152 2.1667-5.9146 7.3799-8.7826 12.122-12.122l3.0305-73.741-27.274-7.0711zm53.538 19.193c-2.0203 4.0406-2.0203 34.345-2.0203 34.345l12.122-31.315-10.102-3.0305zm-364.66-132.33c2.0203 8.0812 8.0812 21.213 8.0812 21.213l1.0102-14.142-9.0914-7.0711z"
      />
    </g
    >
  </g
  >
  <metadata
    >
    <rdf:RDF
      >
      <cc:Work
        >
        <dc:format
          >image/svg+xml</dc:format
        >
        <dc:type
            rdf:resource="http://purl.org/dc/dcmitype/StillImage"
        />
        <cc:license
            rdf:resource="http://creativecommons.org/licenses/publicdomain/"
        />
        <dc:publisher
          >
          <cc:Agent
              rdf:about="http://openclipart.org/"
            >
            <dc:title
              >Openclipart</dc:title
            >
          </cc:Agent
          >
        </dc:publisher
        >
        <dc:title
          >Hobby silhouettes</dc:title
        >
        <dc:date
          >2011-07-25T22:26:31</dc:date
        >
        <dc:description
          >Collection of silhouettes related to hobbies. The tools are all singular objects.</dc:description
        >
        <dc:source
          >https://openclipart.org/detail/151771/hobby-silhouettes-by-moini</dc:source
        >
        <dc:creator
          >
          <cc:Agent
            >
            <dc:title
              >Moini</dc:title
            >
          </cc:Agent
          >
        </dc:creator
        >
        <dc:subject
          >
          <rdf:Bag
            >
            <rdf:li
              >axe</rdf:li
            >
            <rdf:li
              >barbell</rdf:li
            >
            <rdf:li
              >billiard</rdf:li
            >
            <rdf:li
              >block house</rdf:li
            >
            <rdf:li
              >blockhouse</rdf:li
            >
            <rdf:li
              >chisel</rdf:li
            >
            <rdf:li
              >drill</rdf:li
            >
            <rdf:li
              >hammer</rdf:li
            >
            <rdf:li
              >house</rdf:li
            >
            <rdf:li
              >log cabin</rdf:li
            >
            <rdf:li
              >log house</rdf:li
            >
            <rdf:li
              >music</rdf:li
            >
            <rdf:li
              >piano</rdf:li
            >
            <rdf:li
              >planer</rdf:li
            >
            <rdf:li
              >plough</rdf:li
            >
            <rdf:li
              >pond</rdf:li
            >
            <rdf:li
              >sauna</rdf:li
            >
            <rdf:li
              >screw driver</rdf:li
            >
            <rdf:li
              >snooker</rdf:li
            >
            <rdf:li
              >spatula</rdf:li
            >
            <rdf:li
              >swimming</rdf:li
            >
            <rdf:li
              >swimming pool</rdf:li
            >
            <rdf:li
              >tub</rdf:li
            >
            <rdf:li
              >typewriter</rdf:li
            >
            <rdf:li
              >weight</rdf:li
            >
            <rdf:li
              >weightlifting</rdf:li
            >
            <rdf:li
              >workbench</rdf:li
            >
            <rdf:li
              >wrench</rdf:li
            >
            <rdf:li
              >writer</rdf:li
            >
            <rdf:li
              >writing</rdf:li
            >
          </rdf:Bag
          >
        </dc:subject
        >
      </cc:Work
      >
      <cc:License
          rdf:about="http://creativecommons.org/licenses/publicdomain/"
        >
        <cc:permits
            rdf:resource="http://creativecommons.org/ns#Reproduction"
        />
        <cc:permits
            rdf:resource="http://creativecommons.org/ns#Distribution"
        />
        <cc:permits
            rdf:resource="http://creativecommons.org/ns#DerivativeWorks"
        />
      </cc:License
      >
    </rdf:RDF
    >
  </metadata
  >
</svg
>
