Content-Type: text/x-zim-wiki
Wiki-Format: zim 0.4
Creation-Date: 2017-04-19T07:46:14+02:00

====== Ruby ======
Created Wednesday 19 April 2017

===== About =====
	* https://de.wikipedia.org/wiki/Ruby_(Programmiersprache)
