Content-Type: text/x-zim-wiki
Wiki-Format: zim 0.4
Creation-Date: 2017-05-15T09:26:15+02:00

====== 10.Packages ======
Created Montag 15 Mai 2017

===== About =====
'''
# =====
apt-cache search pygo | less
sudo apt-get install python-gi-dev python-gobject-2-dev

#..
'''

