<?xml version="1.0" encoding="UTF-8" standalone="no"?>
<!-- Created with Inkscape (http://www.inkscape.org/) -->

<svg
   xmlns:dc="http://purl.org/dc/elements/1.1/"
   xmlns:cc="http://creativecommons.org/ns#"
   xmlns:rdf="http://www.w3.org/1999/02/22-rdf-syntax-ns#"
   xmlns:svg="http://www.w3.org/2000/svg"
   xmlns="http://www.w3.org/2000/svg"
   xmlns:xlink="http://www.w3.org/1999/xlink"
   xmlns:sodipodi="http://sodipodi.sourceforge.net/DTD/sodipodi-0.dtd"
   xmlns:inkscape="http://www.inkscape.org/namespaces/inkscape"
   width="105.92847mm"
   height="15.800286mm"
   viewBox="0 0 375.33709 55.985266"
   id="svg2"
   version="1.1"
   inkscape:version="0.91 r"
   sodipodi:docname="Tip_001.svg">
  <defs
     id="defs4">
    <linearGradient
       inkscape:collect="always"
       id="linearGradient4977">
      <stop
         style="stop-color:#aca793;stop-opacity:1;"
         offset="0"
         id="stop4979" />
      <stop
         style="stop-color:#aca793;stop-opacity:0;"
         offset="1"
         id="stop4981" />
    </linearGradient>
    <linearGradient
       gradientTransform="translate(148.92125,334.65066)"
       inkscape:collect="always"
       xlink:href="#linearGradient4977"
       id="linearGradient4985-0"
       x1="0"
       y1="147.75319"
       x2="356.1778"
       y2="147.75319"
       gradientUnits="userSpaceOnUse" />
    <linearGradient
       inkscape:collect="always"
       id="linearGradient5148">
      <stop
         style="stop-color:#ffffff;stop-opacity:1"
         offset="0"
         id="stop5150" />
      <stop
         style="stop-color:#ffffff;stop-opacity:0"
         offset="1"
         id="stop5152" />
    </linearGradient>
    <radialGradient
       inkscape:collect="always"
       xlink:href="#linearGradient5148"
       id="radialGradient3354"
       gradientUnits="userSpaceOnUse"
       gradientTransform="matrix(0.02185495,0,0,0.0218435,171.85895,781.50086)"
       cx="1104.5006"
       cy="-152.24796"
       fx="1104.5006"
       fy="-152.24796"
       r="42.660088" />
  </defs>
  <sodipodi:namedview
     id="base"
     pagecolor="#ffffff"
     bordercolor="#666666"
     borderopacity="1.0"
     inkscape:pageopacity="0.0"
     inkscape:pageshadow="2"
     inkscape:zoom="1.69681"
     inkscape:cx="168.25842"
     inkscape:cy="-11.952908"
     inkscape:document-units="px"
     inkscape:current-layer="layer1"
     showgrid="false"
     fit-margin-top="0"
     fit-margin-left="0"
     fit-margin-right="0"
     fit-margin-bottom="0"
     inkscape:showpageshadow="false"
     inkscape:window-width="1600"
     inkscape:window-height="853"
     inkscape:window-x="0"
     inkscape:window-y="25"
     inkscape:window-maximized="1" />
  <metadata
     id="metadata7">
    <rdf:RDF>
      <cc:Work
         rdf:about="">
        <dc:format>image/svg+xml</dc:format>
        <dc:type
           rdf:resource="http://purl.org/dc/dcmitype/StillImage" />
        <dc:title></dc:title>
      </cc:Work>
    </rdf:RDF>
  </metadata>
  <g
     inkscape:label="Layer 1"
     inkscape:groupmode="layer"
     id="layer1"
     transform="translate(-129.76197,-456.06102)">
    <rect
       style="opacity:1;fill:url(#linearGradient4985-0);fill-opacity:1;fill-rule:nonzero;stroke:#000080;stroke-width:1.84707642;stroke-linejoin:round;stroke-miterlimit:4;stroke-dasharray:none;stroke-opacity:1"
       id="rect4947-7"
       width="354.33072"
       height="49.606293"
       x="149.84479"
       y="457.60068" />
    <text
       xml:space="preserve"
       style="font-style:normal;font-variant:normal;font-weight:normal;font-stretch:normal;font-size:12.5px;line-height:125%;font-family:'Droid Sans';-inkscape-font-specification:'Droid Sans, Normal';text-align:start;letter-spacing:0px;word-spacing:0px;writing-mode:lr-tb;text-anchor:start;fill:#000000;fill-opacity:1;stroke:none;stroke-width:1px;stroke-linecap:butt;stroke-linejoin:miter;stroke-opacity:1"
       x="156.93141"
       y="478.86053"
       id="text4949"
       sodipodi:linespacing="125%"><tspan
         sodipodi:role="line"
         id="tspan4951"
         x="156.93141"
         y="478.86053">This box is 100mm broad.</tspan></text>
    <g
       id="g3375"
       transform="translate(111.93378,-4.6676341)">
      <g
         transform="matrix(1.8134682,0,0,1.8012429,-325.28289,-898.65339)"
         style="display:inline"
         id="g4887">
        <g
           id="g4889"
           transform="translate(-4.203964,-0.24898394)">
          <circle
             style="fill:#ff0000;fill-opacity:1;stroke:#000000;stroke-width:0.48146304;stroke-linecap:round;stroke-miterlimit:4;stroke-dasharray:none;stroke-opacity:1"
             cx="196.35628"
             cy="783.07086"
             r="2.7099869"
             id="circle4891" />
          <ellipse
             inkscape:transform-center-y="-0.58158128"
             inkscape:transform-center-x="-0.58157068"
             transform="matrix(0.99973819,0.02288143,0,1,0,0)"
             ry="0.93184608"
             rx="0.93233442"
             style="opacity:1;fill:url(#radialGradient3354);fill-opacity:1;stroke-width:17.5;stroke-linecap:round"
             cx="195.99776"
             cy="778.17529"
             id="ellipse4893" />
        </g>
      </g>
      <ellipse
         ry="20.683727"
         rx="4.7388463"
         id="circle3364"
         cy="481.98849"
         cx="23.179216"
         style="fill:#ff0000;fill-opacity:1;stroke:#000000;stroke-width:1.15222859;stroke-linecap:round;stroke-miterlimit:4;stroke-dasharray:none;stroke-opacity:1" />
    </g>
  </g>
</svg>
