Content-Type: text/x-zim-wiki
Wiki-Format: zim 0.4
Creation-Date: 2017-05-16T12:54:55+02:00

====== GTK ======
Created Dienstag 16 Mai 2017

===== About =====
	* https://en.wikipedia.org/wiki/GTK%2B
	* https://wiki.archlinux.org/index.php/GTK%2B

===== Devhelp =====
	* devhelp -s gtk+		# search
	* developer reference

==== Key-press-event ====
	* ''devhelp &'' 
	{{./pasted_image.png?height=80&href=.%2Fpasted_image.png}}



