Content-Type: text/x-zim-wiki
Wiki-Format: zim 0.4
Creation-Date: 2017-04-28T14:13:16+02:00

====== PyGui ======
Created Freitag 28 April 2017

===== About =====
	* http://www.cosc.canterbury.ac.nz/greg.ewing/python_gui/
		# buggy. python2 / GTK2





